# Fileformat=3
# RtErrors
-2  0 -1 -1 -1 : 1 1.5625 60.9375 20 0.08 0.08 0.08 0.08 0.119373 0.116731 0.116511 0.107717 0.0991612 0.0939432 0.0913207 0.0987232 0.0989253 0.0989253 0.0989253 0.0989253 0.0989253 0.0989253 0.0989253 
-1  0 -1 -1 -1 : 1 1.5625 60.9375 20 0.08 0.08 0.08 0.08 0.13977 0.130514 0.122924 0.111985 0.107667 0.105559 0.0946726 0.0899483 0.0709832 0.0709832 0.070983 0.070983 0.070983 0.070983 0.070983 
 1  0 -1 -1 -1 : 1 1.5625 60.9375 20 0.08 0.08 0.08 0.08 0.13977 0.130514 0.122924 0.111985 0.107667 0.105559 0.0946726 0.0899483 0.0709832 0.0709832 0.070983 0.070983 0.070983 0.070983 0.070983 
 2  0 -1 -1 -1 : 1 1.5625 60.9375 20 0.08 0.08 0.08 0.08 0.119373 0.116731 0.116511 0.107717 0.0991612 0.0939432 0.0913207 0.0987232 0.0989253 0.0989253 0.0989253 0.0989253 0.0989253 0.0989253 0.0989253 
-2  1 -1 -1 -1 : 1 1.5625 60.9375 20 0.08 0.08 0.08 0.08 0.119373 0.116731 0.116511 0.107717 0.0991612 0.0939432 0.0913207 0.0987232 0.0989253 0.0989253 0.0989253 0.0989253 0.0989253 0.0989253 0.0989253 
-1  1 -1 -1 -1 : 1 1.5625 60.9375 20 0.08 0.08 0.08 0.08 0.13977 0.130514 0.122924 0.111985 0.107667 0.105559 0.0946726 0.0899483 0.0709832 0.0709832 0.070983 0.070983 0.070983 0.070983 0.070983 
 1  1 -1 -1 -1 : 1 1.5625 60.9375 20 0.08 0.08 0.08 0.08 0.13977 0.130514 0.122924 0.111985 0.107667 0.105559 0.0946726 0.0899483 0.0709832 0.0709832 0.070983 0.070983 0.070983 0.070983 0.070983 
 2  1 -1 -1 -1 : 1 1.5625 60.9375 20 0.08 0.08 0.08 0.08 0.119373 0.116731 0.116511 0.107717 0.0991612 0.0939432 0.0913207 0.0987232 0.0989253 0.0989253 0.0989253 0.0989253 0.0989253 0.0989253 0.0989253 
-2  2 -1 -1 -1 : 1 1.5625 60.9375 20 0.08 0.08 0.08 0.08 0.119373 0.116731 0.116511 0.107717 0.0991612 0.0939432 0.0913207 0.0987232 0.0989253 0.0989253 0.0989253 0.0989253 0.0989253 0.0989253 0.0989253 
-1  2 -1 -1 -1 : 1 1.5625 60.9375 20 0.08 0.08 0.08 0.08 0.113336 0.116098 0.108839 0.101337 0.0957876 0.0888223 0.0857131 0.0877199 0.0966431 0.0966431 0.096643 0.096643 0.096643 0.096643 0.096643 
 1  2 -1 -1 -1 : 1 1.5625 60.9375 20 0.08 0.08 0.08 0.08 0.113336 0.116098 0.108839 0.101337 0.0957876 0.0888223 0.0857131 0.0877199 0.0966431 0.0966431 0.096643 0.096643 0.096643 0.096643 0.096643 
 2  2 -1 -1 -1 : 1 1.5625 60.9375 20 0.08 0.08 0.08 0.08 0.119373 0.116731 0.116511 0.107717 0.0991612 0.0939432 0.0913207 0.0987232 0.0989253 0.0989253 0.0989253 0.0989253 0.0989253 0.0989253 0.0989253 
-2  3 -1 -1 -1 : 1 1.5625 60.9375 20 0.08 0.08 0.08 0.08 0.14773 0.132927 0.122971 0.109704 0.109523 0.100336 0.098559 0.079446 0.0616095 0.0616095 0.0616095 0.0616095 0.0616095 0.0616095 0.0616095 
 2  3 -1 -1 -1 : 1 1.5625 60.9375 20 0.08 0.08 0.08 0.08 0.14773 0.132927 0.122971 0.109704 0.109523 0.100336 0.098559 0.079446 0.0616095 0.0616095 0.0616095 0.0616095 0.0616095 0.0616095 0.0616095 
-2  4 -1 -1 -1 : 1 1.5625 60.9375 20 0.08 0.08 0.08 0.08 0.119373 0.116731 0.116511 0.107717 0.0991612 0.0939432 0.0913207 0.0987232 0.0989253 0.0989253 0.0989253 0.0989253 0.0989253 0.0989253 0.0989253 
 2  4 -1 -1 -1 : 1 1.5625 60.9375 20 0.08 0.08 0.08 0.08 0.119373 0.116731 0.116511 0.107717 0.0991612 0.0939432 0.0913207 0.0987232 0.0989253 0.0989253 0.0989253 0.0989253 0.0989253 0.0989253 0.0989253 
-2  5 -1 -1 -1 : 1 1.5625 60.9375 20 0.08 0.08 0.08 0.08 0.14773 0.132927 0.122971 0.109704 0.109523 0.100336 0.098559 0.079446 0.0616095 0.0616095 0.0616095 0.0616095 0.0616095 0.0616095 0.0616095 
 2  5 -1 -1 -1 : 1 1.5625 60.9375 20 0.08 0.08 0.08 0.08 0.14773 0.132927 0.122971 0.109704 0.109523 0.100336 0.098559 0.079446 0.0616095 0.0616095 0.0616095 0.0616095 0.0616095 0.0616095 0.0616095 
-2  6 -1 -1 -1 : 1 1.5625 60.9375 20 0.08 0.08 0.08 0.08 0.119373 0.116731 0.116511 0.107717 0.0991612 0.0939432 0.0913207 0.0987232 0.0989253 0.0989253 0.0989253 0.0989253 0.0989253 0.0989253 0.0989253 
 2  6 -1 -1 -1 : 1 1.5625 60.9375 20 0.08 0.08 0.08 0.08 0.119373 0.116731 0.116511 0.107717 0.0991612 0.0939432 0.0913207 0.0987232 0.0989253 0.0989253 0.0989253 0.0989253 0.0989253 0.0989253 0.0989253 
-2  7 -1 -1 -1 : 1 1.5625 60.9375 20 0.08 0.08 0.08 0.08 0.119373 0.116731 0.116511 0.107717 0.0991612 0.0939432 0.0913207 0.0987232 0.0989253 0.0989253 0.0989253 0.0989253 0.0989253 0.0989253 0.0989253 
 2  7 -1 -1 -1 : 1 1.5625 60.9375 20 0.08 0.08 0.08 0.08 0.119373 0.116731 0.116511 0.107717 0.0991612 0.0939432 0.0913207 0.0987232 0.0989253 0.0989253 0.0989253 0.0989253 0.0989253 0.0989253 0.0989253 
-2  8 -1 -1 -1 : 1 1.5625 60.9375 20 0.08 0.08 0.08 0.08 0.14773 0.132927 0.122971 0.109704 0.109523 0.100336 0.098559 0.079446 0.0616095 0.0616095 0.0616095 0.0616095 0.0616095 0.0616095 0.0616095 
 2  8 -1 -1 -1 : 1 1.5625 60.9375 20 0.08 0.08 0.08 0.08 0.119373 0.116731 0.116511 0.107717 0.0991612 0.0939432 0.0913207 0.0987232 0.0989253 0.0989253 0.0989253 0.0989253 0.0989253 0.0989253 0.0989253 
-2  9 -1 -1 -1 : 1 1.5625 60.9375 20 0.08 0.08 0.08 0.08 0.119373 0.116731 0.116511 0.107717 0.0991612 0.0939432 0.0913207 0.0987232 0.0989253 0.0989253 0.0989253 0.0989253 0.0989253 0.0989253 0.0989253 
 2  9 -1 -1 -1 : 1 1.5625 60.9375 20 0.08 0.08 0.08 0.08 0.119373 0.116731 0.116511 0.107717 0.0991612 0.0939432 0.0913207 0.0987232 0.0989253 0.0989253 0.0989253 0.0989253 0.0989253 0.0989253 0.0989253 
-2 10 -1 -1 -1 : 1 1.5625 60.9375 20 0.08 0.08 0.08 0.08 0.119373 0.116731 0.116511 0.107717 0.0991612 0.0939432 0.0913207 0.0987232 0.0989253 0.0989253 0.0989253 0.0989253 0.0989253 0.0989253 0.0989253 
 2 10 -1 -1 -1 : 1 1.5625 60.9375 20 0.08 0.08 0.08 0.08 0.119373 0.116731 0.116511 0.107717 0.0991612 0.0939432 0.0913207 0.0987232 0.0989253 0.0989253 0.0989253 0.0989253 0.0989253 0.0989253 0.0989253 
-2 11 -1 -1 -1 : 1 1.5625 60.9375 20 0.08 0.08 0.08 0.08 0.119373 0.116731 0.116511 0.107717 0.0991612 0.0939432 0.0913207 0.0987232 0.0989253 0.0989253 0.0989253 0.0989253 0.0989253 0.0989253 0.0989253 
 2 11 -1 -1 -1 : 1 1.5625 60.9375 20 0.08 0.08 0.08 0.08 0.119373 0.116731 0.116511 0.107717 0.0991612 0.0939432 0.0913207 0.0987232 0.0989253 0.0989253 0.0989253 0.0989253 0.0989253 0.0989253 0.0989253 
-2 12 -1 -1 -1 : 1 1.5625 60.9375 20 0.08 0.08 0.08 0.08 0.119373 0.116731 0.116511 0.107717 0.0991612 0.0939432 0.0913207 0.0987232 0.0989253 0.0989253 0.0989253 0.0989253 0.0989253 0.0989253 0.0989253 
 2 12 -1 -1 -1 : 1 1.5625 60.9375 20 0.08 0.08 0.08 0.08 0.119373 0.116731 0.116511 0.107717 0.0991612 0.0939432 0.0913207 0.0987232 0.0989253 0.0989253 0.0989253 0.0989253 0.0989253 0.0989253 0.0989253 
-2 13 -1 -1 -1 : 1 1.5625 60.9375 20 0.08 0.08 0.08 0.08 0.119373 0.116731 0.116511 0.107717 0.0991612 0.0939432 0.0913207 0.0987232 0.0989253 0.0989253 0.0989253 0.0989253 0.0989253 0.0989253 0.0989253 
 2 13 -1 -1 -1 : 1 1.5625 60.9375 20 0.08 0.08 0.08 0.08 0.119373 0.116731 0.116511 0.107717 0.0991612 0.0939432 0.0913207 0.0987232 0.0989253 0.0989253 0.0989253 0.0989253 0.0989253 0.0989253 0.0989253 
# RtSlopes
-2  0 -1 -1 -1 : 1 1.5625 60.9375 20 0 0 0 0 0.00201886 0.00168057 0.00146171 0.001398 0.00139357 0.00141157 0.00139057 0.000631571 0.000383429 0.000383429 0.000383429 0 0 0 0 0
-1  0 -1 -1 -1 : 1 1.5625 60.9375 20 0 0 0 0 0.00141627 0.00110331 0.0010258 0.00110751 0.000847535 0.000636267 0.00114303 0.00105383 0.00133762 0.00133762 0.00133762 0 0 0 0 0
 1  0 -1 -1 -1 : 1 1.5625 60.9375 20 0 0 0 0 0.00141627 0.00110331 0.0010258 0.00110751 0.000847535 0.000636267 0.00114303 0.00105383 0.00133762 0.00133762 0.00133762 0 0 0 0 0
 2  0 -1 -1 -1 : 1 1.5625 60.9375 20 0 0 0 0 0.00201886 0.00168057 0.00146171 0.001398 0.00139357 0.00141157 0.00139057 0.000631571 0.000383429 0.000383429 0.000383429 0 0 0 0 0
-2  1 -1 -1 -1 : 1 1.5625 60.9375 20 0 0 0 0 0.00201886 0.00168057 0.00146171 0.001398 0.00139357 0.00141157 0.00139057 0.000631571 0.000383429 0.000383429 0.000383429 0 0 0 0 0
-1  1 -1 -1 -1 : 1 1.5625 60.9375 20 0 0 0 0 0.00141627 0.00110331 0.0010258 0.00110751 0.000847535 0.000636267 0.00114303 0.00105383 0.00133762 0.00133762 0.00133762 0 0 0 0 0
 1  1 -1 -1 -1 : 1 1.5625 60.9375 20 0 0 0 0 0.00141627 0.00110331 0.0010258 0.00110751 0.000847535 0.000636267 0.00114303 0.00105383 0.00133762 0.00133762 0.00133762 0 0 0 0 0
 2  1 -1 -1 -1 : 1 1.5625 60.9375 20 0 0 0 0 0.00201886 0.00168057 0.00146171 0.001398 0.00139357 0.00141157 0.00139057 0.000631571 0.000383429 0.000383429 0.000383429 0 0 0 0 0
-2  2 -1 -1 -1 : 1 1.5625 60.9375 20 0 0 0 0 0.00201886 0.00168057 0.00146171 0.001398 0.00139357 0.00141157 0.00139057 0.000631571 0.000383429 0.000383429 0.000383429 0 0 0 0 0
-1  2 -1 -1 -1 : 1 1.5625 60.9375 20 0 0 0 0 0.00174414 0.00137657 0.001339 0.00127586 0.00124286 0.00139129 0.00141971 0.00100414 0.000565714 0.000565714 0.000565714 0 0 0 0 0
 1  2 -1 -1 -1 : 1 1.5625 60.9375 20 0 0 0 0 0.00174414 0.00137657 0.001339 0.00127586 0.00124286 0.00139129 0.00141971 0.00100414 0.000565714 0.000565714 0.000565714 0 0 0 0 0
 2  2 -1 -1 -1 : 1 1.5625 60.9375 20 0 0 0 0 0.00201886 0.00168057 0.00146171 0.001398 0.00139357 0.00141157 0.00139057 0.000631571 0.000383429 0.000383429 0.000383429 0 0 0 0 0
-2  3 -1 -1 -1 : 1 1.5625 60.9375 20 0 0 0 0 0.000828135 0.000946951 0.00078628 0.0011624 0.000735649 0.000789057 0.00015811 0.000969114 0.00101354 0.00101354 0.00101354 0 0 0 0 0
 2  3 -1 -1 -1 : 1 1.5625 60.9375 20 0 0 0 0 0.000828135 0.000946951 0.00078628 0.0011624 0.000735649 0.000789057 0.00015811 0.000969114 0.00101354 0.00101354 0.00101354 0 0 0 0 0
-2  4 -1 -1 -1 : 1 1.5625 60.9375 20 0 0 0 0 0.00201886 0.00168057 0.00146171 0.001398 0.00139357 0.00141157 0.00139057 0.000631571 0.000383429 0.000383429 0.000383429 0 0 0 0 0
 2  4 -1 -1 -1 : 1 1.5625 60.9375 20 0 0 0 0 0.00201886 0.00168057 0.00146171 0.001398 0.00139357 0.00141157 0.00139057 0.000631571 0.000383429 0.000383429 0.000383429 0 0 0 0 0
-2  5 -1 -1 -1 : 1 1.5625 60.9375 20 0 0 0 0 0.000828135 0.000946951 0.00078628 0.0011624 0.000735649 0.000789057 0.00015811 0.000969114 0.00101354 0.00101354 0.00101354 0 0 0 0 0
 2  5 -1 -1 -1 : 1 1.5625 60.9375 20 0 0 0 0 0.000828135 0.000946951 0.00078628 0.0011624 0.000735649 0.000789057 0.00015811 0.000969114 0.00101354 0.00101354 0.00101354 0 0 0 0 0
-2  6 -1 -1 -1 : 1 1.5625 60.9375 20 0 0 0 0 0.00201886 0.00168057 0.00146171 0.001398 0.00139357 0.00141157 0.00139057 0.000631571 0.000383429 0.000383429 0.000383429 0 0 0 0 0
 2  6 -1 -1 -1 : 1 1.5625 60.9375 20 0 0 0 0 0.00201886 0.00168057 0.00146171 0.001398 0.00139357 0.00141157 0.00139057 0.000631571 0.000383429 0.000383429 0.000383429 0 0 0 0 0
-2  7 -1 -1 -1 : 1 1.5625 60.9375 20 0 0 0 0 0.00201886 0.00168057 0.00146171 0.001398 0.00139357 0.00141157 0.00139057 0.000631571 0.000383429 0.000383429 0.000383429 0 0 0 0 0
 2  7 -1 -1 -1 : 1 1.5625 60.9375 20 0 0 0 0 0.00201886 0.00168057 0.00146171 0.001398 0.00139357 0.00141157 0.00139057 0.000631571 0.000383429 0.000383429 0.000383429 0 0 0 0 0
-2  8 -1 -1 -1 : 1 1.5625 60.9375 20 0 0 0 0 0.000828135 0.000946951 0.00078628 0.0011624 0.000735649 0.000789057 0.00015811 0.000969114 0.00101354 0.00101354 0.00101354 0 0 0 0 0
 2  8 -1 -1 -1 : 1 1.5625 60.9375 20 0 0 0 0 0.00201886 0.00168057 0.00146171 0.001398 0.00139357 0.00141157 0.00139057 0.000631571 0.000383429 0.000383429 0.000383429 0 0 0 0 0
-2  9 -1 -1 -1 : 1 1.5625 60.9375 20 0 0 0 0 0.00201886 0.00168057 0.00146171 0.001398 0.00139357 0.00141157 0.00139057 0.000631571 0.000383429 0.000383429 0.000383429 0 0 0 0 0
 2  9 -1 -1 -1 : 1 1.5625 60.9375 20 0 0 0 0 0.00201886 0.00168057 0.00146171 0.001398 0.00139357 0.00141157 0.00139057 0.000631571 0.000383429 0.000383429 0.000383429 0 0 0 0 0
-2 10 -1 -1 -1 : 1 1.5625 60.9375 20 0 0 0 0 0.00201886 0.00168057 0.00146171 0.001398 0.00139357 0.00141157 0.00139057 0.000631571 0.000383429 0.000383429 0.000383429 0 0 0 0 0
 2 10 -1 -1 -1 : 1 1.5625 60.9375 20 0 0 0 0 0.00201886 0.00168057 0.00146171 0.001398 0.00139357 0.00141157 0.00139057 0.000631571 0.000383429 0.000383429 0.000383429 0 0 0 0 0
-2 11 -1 -1 -1 : 1 1.5625 60.9375 20 0 0 0 0 0.00201886 0.00168057 0.00146171 0.001398 0.00139357 0.00141157 0.00139057 0.000631571 0.000383429 0.000383429 0.000383429 0 0 0 0 0
 2 11 -1 -1 -1 : 1 1.5625 60.9375 20 0 0 0 0 0.00201886 0.00168057 0.00146171 0.001398 0.00139357 0.00141157 0.00139057 0.000631571 0.000383429 0.000383429 0.000383429 0 0 0 0 0
-2 12 -1 -1 -1 : 1 1.5625 60.9375 20 0 0 0 0 0.00201886 0.00168057 0.00146171 0.001398 0.00139357 0.00141157 0.00139057 0.000631571 0.000383429 0.000383429 0.000383429 0 0 0 0 0
 2 12 -1 -1 -1 : 1 1.5625 60.9375 20 0 0 0 0 0.00201886 0.00168057 0.00146171 0.001398 0.00139357 0.00141157 0.00139057 0.000631571 0.000383429 0.000383429 0.000383429 0 0 0 0 0
-2 13 -1 -1 -1 : 1 1.5625 60.9375 20 0 0 0 0 0.00201886 0.00168057 0.00146171 0.001398 0.00139357 0.00141157 0.00139057 0.000631571 0.000383429 0.000383429 0.000383429 0 0 0 0 0
 2 13 -1 -1 -1 : 1 1.5625 60.9375 20 0 0 0 0 0.00201886 0.00168057 0.00146171 0.001398 0.00139357 0.00141157 0.00139057 0.000631571 0.000383429 0.000383429 0.000383429 0 0 0 0 0
