# Fileformat=3
# RtErrors
-2  0 -1 -1 -1 : 1 1.5625 60.9375 20 0.154076 0.174788 0.136917 0.133598 0.117181 0.123301 0.105185 0.111515 0.0951213 0.0980016 0.0857183 0.0932188 0.0887555 0.0887555 0.0887555 0.088755 0.088755 0.088755 0.088755 0.088755
-1  0 -1 -1 -1 : 1 1.5625 60.9375 20 0.122191 0.122191 0.174147 0.168384 0.160304 0.134717 0.124852 0.116833 0.0946283 0.0897862 0.0945226 0.0889775 0.0591275 0.0591275 0.059127 0.059127 0.059127 0.059127 0.059127 0.059127
 1  0 -1 -1 -1 : 1 1.5625 60.9375 20 0.122191 0.122191 0.174147 0.168384 0.160304 0.134717 0.124852 0.116833 0.0946283 0.0897862 0.0945226 0.0889775 0.0591275 0.0591275 0.059127 0.059127 0.059127 0.059127 0.059127 0.059127
 2  0 -1 -1 -1 : 1 1.5625 60.9375 20 0.154076 0.174788 0.136917 0.133598 0.117181 0.123301 0.105185 0.111515 0.0951213 0.0980016 0.0857183 0.0932188 0.0887555 0.0887555 0.0887555 0.088755 0.088755 0.088755 0.088755 0.088755
-2  1 -1 -1 -1 : 1 1.5625 60.9375 20 0.154076 0.174788 0.136917 0.133598 0.117181 0.123301 0.105185 0.111515 0.0951213 0.0980016 0.0857183 0.0932188 0.0887555 0.0887555 0.0887555 0.088755 0.088755 0.088755 0.088755 0.088755
-1  1 -1 -1 -1 : 1 1.5625 60.9375 20 0.122191 0.122191 0.174147 0.168384 0.160304 0.134717 0.124852 0.116833 0.0946283 0.0897862 0.0945226 0.0889775 0.0591275 0.0591275 0.059127 0.059127 0.059127 0.059127 0.059127 0.059127
 1  1 -1 -1 -1 : 1 1.5625 60.9375 20 0.122191 0.122191 0.174147 0.168384 0.160304 0.134717 0.124852 0.116833 0.0946283 0.0897862 0.0945226 0.0889775 0.0591275 0.0591275 0.059127 0.059127 0.059127 0.059127 0.059127 0.059127
 2  1 -1 -1 -1 : 1 1.5625 60.9375 20 0.154076 0.174788 0.136917 0.133598 0.117181 0.123301 0.105185 0.111515 0.0951213 0.0980016 0.0857183 0.0932188 0.0887555 0.0887555 0.0887555 0.088755 0.088755 0.088755 0.088755 0.088755
-2  2 -1 -1 -1 : 1 1.5625 60.9375 20 0.154076 0.174788 0.136917 0.133598 0.117181 0.123301 0.105185 0.111515 0.0951213 0.0980016 0.0857183 0.0932188 0.0887555 0.0887555 0.0887555 0.088755 0.088755 0.088755 0.088755 0.088755
-1  2 -1 -1 -1 : 1 1.5625 60.9375 20 0.150539 0.171386 0.159367 0.151022 0.1326 0.12079 0.116702 0.115416 0.114292 0.0926781 0.0937463 0.0848158 0.0850507 0.0850507 0.0850507 0.0850507 0.0850507 0.0850507 0.0850507 0.0850507
 1  2 -1 -1 -1 : 1 1.5625 60.9375 20 0.150539 0.171386 0.159367 0.151022 0.1326 0.12079 0.116702 0.115416 0.114292 0.0926781 0.0937463 0.0848158 0.0850507 0.0850507 0.0850507 0.0850507 0.0850507 0.0850507 0.0850507 0.0850507
 2  2 -1 -1 -1 : 1 1.5625 60.9375 20 0.154076 0.174788 0.136917 0.133598 0.117181 0.123301 0.105185 0.111515 0.0951213 0.0980016 0.0857183 0.0932188 0.0887555 0.0887555 0.0887555 0.088755 0.088755 0.088755 0.088755 0.088755
-2  3 -1 -1 -1 : 1 1.5625 60.9375 20 0.0973413 0.0973413 0.144026 0.173945 0.151278 0.128697 0.11992 0.106903 0.0952238 0.0920541 0.0850505 0.0807568 0.0560185 0.0560185 0.0560185 0.0560185 0.0560185 0.0560185 0.0560185 0.0560185
 2  3 -1 -1 -1 : 1 1.5625 60.9375 20 0.0973413 0.0973413 0.144026 0.173945 0.151278 0.128697 0.11992 0.106903 0.0952238 0.0920541 0.0850505 0.0807568 0.0560185 0.0560185 0.0560185 0.0560185 0.0560185 0.0560185 0.0560185 0.0560185
-2  4 -1 -1 -1 : 1 1.5625 60.9375 20 0.154076 0.174788 0.136917 0.133598 0.117181 0.123301 0.105185 0.111515 0.0951213 0.0980016 0.0857183 0.0932188 0.0887555 0.0887555 0.0887555 0.088755 0.088755 0.088755 0.088755 0.088755
 2  4 -1 -1 -1 : 1 1.5625 60.9375 20 0.154076 0.174788 0.136917 0.133598 0.117181 0.123301 0.105185 0.111515 0.0951213 0.0980016 0.0857183 0.0932188 0.0887555 0.0887555 0.0887555 0.088755 0.088755 0.088755 0.088755 0.088755
-2  5 -1 -1 -1 : 1 1.5625 60.9375 20 0.0973413 0.0973413 0.144026 0.173945 0.151278 0.128697 0.11992 0.106903 0.0952238 0.0920541 0.0850505 0.0807568 0.0560185 0.0560185 0.0560185 0.0560185 0.0560185 0.0560185 0.0560185 0.0560185
 2  5 -1 -1 -1 : 1 1.5625 60.9375 20 0.0973413 0.0973413 0.144026 0.173945 0.151278 0.128697 0.11992 0.106903 0.0952238 0.0920541 0.0850505 0.0807568 0.0560185 0.0560185 0.0560185 0.0560185 0.0560185 0.0560185 0.0560185 0.0560185
-2  6 -1 -1 -1 : 1 1.5625 60.9375 20 0.154076 0.174788 0.136917 0.133598 0.117181 0.123301 0.105185 0.111515 0.0951213 0.0980016 0.0857183 0.0932188 0.0887555 0.0887555 0.0887555 0.088755 0.088755 0.088755 0.088755 0.088755
 2  6 -1 -1 -1 : 1 1.5625 60.9375 20 0.154076 0.174788 0.136917 0.133598 0.117181 0.123301 0.105185 0.111515 0.0951213 0.0980016 0.0857183 0.0932188 0.0887555 0.0887555 0.0887555 0.088755 0.088755 0.088755 0.088755 0.088755
-2  7 -1 -1 -1 : 1 1.5625 60.9375 20 0.154076 0.174788 0.136917 0.133598 0.117181 0.123301 0.105185 0.111515 0.0951213 0.0980016 0.0857183 0.0932188 0.0887555 0.0887555 0.0887555 0.088755 0.088755 0.088755 0.088755 0.088755
 2  7 -1 -1 -1 : 1 1.5625 60.9375 20 0.154076 0.174788 0.136917 0.133598 0.117181 0.123301 0.105185 0.111515 0.0951213 0.0980016 0.0857183 0.0932188 0.0887555 0.0887555 0.0887555 0.088755 0.088755 0.088755 0.088755 0.088755
-2  8 -1 -1 -1 : 1 1.5625 60.9375 20 0.0973413 0.0973413 0.144026 0.173945 0.151278 0.128697 0.11992 0.106903 0.0952238 0.0920541 0.0850505 0.0807568 0.0560185 0.0560185 0.0560185 0.0560185 0.0560185 0.0560185 0.0560185 0.0560185
 2  8 -1 -1 -1 : 1 1.5625 60.9375 20 0.154076 0.174788 0.136917 0.133598 0.117181 0.123301 0.105185 0.111515 0.0951213 0.0980016 0.0857183 0.0932188 0.0887555 0.0887555 0.0887555 0.088755 0.088755 0.088755 0.088755 0.088755
-2  9 -1 -1 -1 : 1 1.5625 60.9375 20 0.154076 0.174788 0.136917 0.133598 0.117181 0.123301 0.105185 0.111515 0.0951213 0.0980016 0.0857183 0.0932188 0.0887555 0.0887555 0.0887555 0.088755 0.088755 0.088755 0.088755 0.088755
 2  9 -1 -1 -1 : 1 1.5625 60.9375 20 0.154076 0.174788 0.136917 0.133598 0.117181 0.123301 0.105185 0.111515 0.0951213 0.0980016 0.0857183 0.0932188 0.0887555 0.0887555 0.0887555 0.088755 0.088755 0.088755 0.088755 0.088755
-2 10 -1 -1 -1 : 1 1.5625 60.9375 20 0.154076 0.174788 0.136917 0.133598 0.117181 0.123301 0.105185 0.111515 0.0951213 0.0980016 0.0857183 0.0932188 0.0887555 0.0887555 0.0887555 0.088755 0.088755 0.088755 0.088755 0.088755
 2 10 -1 -1 -1 : 1 1.5625 60.9375 20 0.154076 0.174788 0.136917 0.133598 0.117181 0.123301 0.105185 0.111515 0.0951213 0.0980016 0.0857183 0.0932188 0.0887555 0.0887555 0.0887555 0.088755 0.088755 0.088755 0.088755 0.088755
-2 11 -1 -1 -1 : 1 1.5625 60.9375 20 0.154076 0.174788 0.136917 0.133598 0.117181 0.123301 0.105185 0.111515 0.0951213 0.0980016 0.0857183 0.0932188 0.0887555 0.0887555 0.0887555 0.088755 0.088755 0.088755 0.088755 0.088755
 2 11 -1 -1 -1 : 1 1.5625 60.9375 20 0.154076 0.174788 0.136917 0.133598 0.117181 0.123301 0.105185 0.111515 0.0951213 0.0980016 0.0857183 0.0932188 0.0887555 0.0887555 0.0887555 0.088755 0.088755 0.088755 0.088755 0.088755
-2 12 -1 -1 -1 : 1 1.5625 60.9375 20 0.154076 0.174788 0.136917 0.133598 0.117181 0.123301 0.105185 0.111515 0.0951213 0.0980016 0.0857183 0.0932188 0.0887555 0.0887555 0.0887555 0.088755 0.088755 0.088755 0.088755 0.088755
 2 12 -1 -1 -1 : 1 1.5625 60.9375 20 0.154076 0.174788 0.136917 0.133598 0.117181 0.123301 0.105185 0.111515 0.0951213 0.0980016 0.0857183 0.0932188 0.0887555 0.0887555 0.0887555 0.088755 0.088755 0.088755 0.088755 0.088755
-2 13 -1 -1 -1 : 1 1.5625 60.9375 20 0.154076 0.174788 0.136917 0.133598 0.117181 0.123301 0.105185 0.111515 0.0951213 0.0980016 0.0857183 0.0932188 0.0887555 0.0887555 0.0887555 0.088755 0.088755 0.088755 0.088755 0.088755
 2 13 -1 -1 -1 : 1 1.5625 60.9375 20 0.154076 0.174788 0.136917 0.133598 0.117181 0.123301 0.105185 0.111515 0.0951213 0.0980016 0.0857183 0.0932188 0.0887555 0.0887555 0.0887555 0.088755 0.088755 0.088755 0.088755 0.088755
# RtSlopes
-2  0 -1 -1 -1 : 1 1.5625 60.9375 20 6.01623e-06 0.00132313 0.00189348 0.00168135 0.00173498 0.0006815 0.00161165 0.000950346 0.00108972 0.000270114 0.00112584 0.000172085 7.51867e-06 7.51867e-06 7.51867e-06 0 0 0 0 0
-1  0 -1 -1 -1 : 1 1.5625 60.9375 20 7.9122e-05 7.9122e-05 0.000205064 0.00171069 0.000293326 0.000874736 0.00044005 0.000316602 0.000692065 0.000681713 0.000223394 0.000482757 0.000526827 0.000526827 0.000526827 0 0 0 0 0
 1  0 -1 -1 -1 : 1 1.5625 60.9375 20 7.9122e-05 7.9122e-05 0.000205064 0.00171069 0.000293326 0.000874736 0.00044005 0.000316602 0.000692065 0.000681713 0.000223394 0.000482757 0.000526827 0.000526827 0.000526827 0 0 0 0 0
 2  0 -1 -1 -1 : 1 1.5625 60.9375 20 6.01623e-06 0.00132313 0.00189348 0.00168135 0.00173498 0.0006815 0.00161165 0.000950346 0.00108972 0.000270114 0.00112584 0.000172085 7.51867e-06 7.51867e-06 7.51867e-06 0 0 0 0 0
-2  1 -1 -1 -1 : 1 1.5625 60.9375 20 6.01623e-06 0.00132313 0.00189348 0.00168135 0.00173498 0.0006815 0.00161165 0.000950346 0.00108972 0.000270114 0.00112584 0.000172085 7.51867e-06 7.51867e-06 7.51867e-06 0 0 0 0 0
-1  1 -1 -1 -1 : 1 1.5625 60.9375 20 7.9122e-05 7.9122e-05 0.000205064 0.00171069 0.000293326 0.000874736 0.00044005 0.000316602 0.000692065 0.000681713 0.000223394 0.000482757 0.000526827 0.000526827 0.000526827 0 0 0 0 0
 1  1 -1 -1 -1 : 1 1.5625 60.9375 20 7.9122e-05 7.9122e-05 0.000205064 0.00171069 0.000293326 0.000874736 0.00044005 0.000316602 0.000692065 0.000681713 0.000223394 0.000482757 0.000526827 0.000526827 0.000526827 0 0 0 0 0
 2  1 -1 -1 -1 : 1 1.5625 60.9375 20 6.01623e-06 0.00132313 0.00189348 0.00168135 0.00173498 0.0006815 0.00161165 0.000950346 0.00108972 0.000270114 0.00112584 0.000172085 7.51867e-06 7.51867e-06 7.51867e-06 0 0 0 0 0
-2  2 -1 -1 -1 : 1 1.5625 60.9375 20 6.01623e-06 0.00132313 0.00189348 0.00168135 0.00173498 0.0006815 0.00161165 0.000950346 0.00108972 0.000270114 0.00112584 0.000172085 7.51867e-06 7.51867e-06 7.51867e-06 0 0 0 0 0
-1  2 -1 -1 -1 : 1 1.5625 60.9375 20 0.000757558 0.00175206 0.00138627 0.00083488 0.001241 0.00130736 0.000874691 0.000695995 0.000160458 0.000792146 0.000477464 0.000530235 0.000251536 0.000251536 0.000251536 0 0 0 0 0
 1  2 -1 -1 -1 : 1 1.5625 60.9375 20 0.000757558 0.00175206 0.00138627 0.00083488 0.001241 0.00130736 0.000874691 0.000695995 0.000160458 0.000792146 0.000477464 0.000530235 0.000251536 0.000251536 0.000251536 0 0 0 0 0
 2  2 -1 -1 -1 : 1 1.5625 60.9375 20 6.01623e-06 0.00132313 0.00189348 0.00168135 0.00173498 0.0006815 0.00161165 0.000950346 0.00108972 0.000270114 0.00112584 0.000172085 7.51867e-06 7.51867e-06 7.51867e-06 0 0 0 0 0
-2  3 -1 -1 -1 : 1 1.5625 60.9375 20 0.000225572 0.000225572 0.000325572 0.000557443 0.000189125 0.000373641 6.89723e-05 0.000116298 0.000240565 0.000172485 0.000321981 0.000275995 0.00018244 0.00018244 0.00018244 0 0 0 0 0
 2  3 -1 -1 -1 : 1 1.5625 60.9375 20 0.000225572 0.000225572 0.000325572 0.000557443 0.000189125 0.000373641 6.89723e-05 0.000116298 0.000240565 0.000172485 0.000321981 0.000275995 0.00018244 0.00018244 0.00018244 0 0 0 0 0
-2  4 -1 -1 -1 : 1 1.5625 60.9375 20 6.01623e-06 0.00132313 0.00189348 0.00168135 0.00173498 0.0006815 0.00161165 0.000950346 0.00108972 0.000270114 0.00112584 0.000172085 7.51867e-06 7.51867e-06 7.51867e-06 0 0 0 0 0
 2  4 -1 -1 -1 : 1 1.5625 60.9375 20 6.01623e-06 0.00132313 0.00189348 0.00168135 0.00173498 0.0006815 0.00161165 0.000950346 0.00108972 0.000270114 0.00112584 0.000172085 7.51867e-06 7.51867e-06 7.51867e-06 0 0 0 0 0
-2  5 -1 -1 -1 : 1 1.5625 60.9375 20 0.000225572 0.000225572 0.000325572 0.000557443 0.000189125 0.000373641 6.89723e-05 0.000116298 0.000240565 0.000172485 0.000321981 0.000275995 0.00018244 0.00018244 0.00018244 0 0 0 0 0
 2  5 -1 -1 -1 : 1 1.5625 60.9375 20 0.000225572 0.000225572 0.000325572 0.000557443 0.000189125 0.000373641 6.89723e-05 0.000116298 0.000240565 0.000172485 0.000321981 0.000275995 0.00018244 0.00018244 0.00018244 0 0 0 0 0
-2  6 -1 -1 -1 : 1 1.5625 60.9375 20 6.01623e-06 0.00132313 0.00189348 0.00168135 0.00173498 0.0006815 0.00161165 0.000950346 0.00108972 0.000270114 0.00112584 0.000172085 7.51867e-06 7.51867e-06 7.51867e-06 0 0 0 0 0
 2  6 -1 -1 -1 : 1 1.5625 60.9375 20 6.01623e-06 0.00132313 0.00189348 0.00168135 0.00173498 0.0006815 0.00161165 0.000950346 0.00108972 0.000270114 0.00112584 0.000172085 7.51867e-06 7.51867e-06 7.51867e-06 0 0 0 0 0
-2  7 -1 -1 -1 : 1 1.5625 60.9375 20 6.01623e-06 0.00132313 0.00189348 0.00168135 0.00173498 0.0006815 0.00161165 0.000950346 0.00108972 0.000270114 0.00112584 0.000172085 7.51867e-06 7.51867e-06 7.51867e-06 0 0 0 0 0
 2  7 -1 -1 -1 : 1 1.5625 60.9375 20 6.01623e-06 0.00132313 0.00189348 0.00168135 0.00173498 0.0006815 0.00161165 0.000950346 0.00108972 0.000270114 0.00112584 0.000172085 7.51867e-06 7.51867e-06 7.51867e-06 0 0 0 0 0
-2  8 -1 -1 -1 : 1 1.5625 60.9375 20 0.000225572 0.000225572 0.000325572 0.000557443 0.000189125 0.000373641 6.89723e-05 0.000116298 0.000240565 0.000172485 0.000321981 0.000275995 0.00018244 0.00018244 0.00018244 0 0 0 0 0
 2  8 -1 -1 -1 : 1 1.5625 60.9375 20 6.01623e-06 0.00132313 0.00189348 0.00168135 0.00173498 0.0006815 0.00161165 0.000950346 0.00108972 0.000270114 0.00112584 0.000172085 7.51867e-06 7.51867e-06 7.51867e-06 0 0 0 0 0
-2  9 -1 -1 -1 : 1 1.5625 60.9375 20 6.01623e-06 0.00132313 0.00189348 0.00168135 0.00173498 0.0006815 0.00161165 0.000950346 0.00108972 0.000270114 0.00112584 0.000172085 7.51867e-06 7.51867e-06 7.51867e-06 0 0 0 0 0
 2  9 -1 -1 -1 : 1 1.5625 60.9375 20 6.01623e-06 0.00132313 0.00189348 0.00168135 0.00173498 0.0006815 0.00161165 0.000950346 0.00108972 0.000270114 0.00112584 0.000172085 7.51867e-06 7.51867e-06 7.51867e-06 0 0 0 0 0
-2 10 -1 -1 -1 : 1 1.5625 60.9375 20 6.01623e-06 0.00132313 0.00189348 0.00168135 0.00173498 0.0006815 0.00161165 0.000950346 0.00108972 0.000270114 0.00112584 0.000172085 7.51867e-06 7.51867e-06 7.51867e-06 0 0 0 0 0
 2 10 -1 -1 -1 : 1 1.5625 60.9375 20 6.01623e-06 0.00132313 0.00189348 0.00168135 0.00173498 0.0006815 0.00161165 0.000950346 0.00108972 0.000270114 0.00112584 0.000172085 7.51867e-06 7.51867e-06 7.51867e-06 0 0 0 0 0
-2 11 -1 -1 -1 : 1 1.5625 60.9375 20 6.01623e-06 0.00132313 0.00189348 0.00168135 0.00173498 0.0006815 0.00161165 0.000950346 0.00108972 0.000270114 0.00112584 0.000172085 7.51867e-06 7.51867e-06 7.51867e-06 0 0 0 0 0
 2 11 -1 -1 -1 : 1 1.5625 60.9375 20 6.01623e-06 0.00132313 0.00189348 0.00168135 0.00173498 0.0006815 0.00161165 0.000950346 0.00108972 0.000270114 0.00112584 0.000172085 7.51867e-06 7.51867e-06 7.51867e-06 0 0 0 0 0
-2 12 -1 -1 -1 : 1 1.5625 60.9375 20 6.01623e-06 0.00132313 0.00189348 0.00168135 0.00173498 0.0006815 0.00161165 0.000950346 0.00108972 0.000270114 0.00112584 0.000172085 7.51867e-06 7.51867e-06 7.51867e-06 0 0 0 0 0
 2 12 -1 -1 -1 : 1 1.5625 60.9375 20 6.01623e-06 0.00132313 0.00189348 0.00168135 0.00173498 0.0006815 0.00161165 0.000950346 0.00108972 0.000270114 0.00112584 0.000172085 7.51867e-06 7.51867e-06 7.51867e-06 0 0 0 0 0
-2 13 -1 -1 -1 : 1 1.5625 60.9375 20 6.01623e-06 0.00132313 0.00189348 0.00168135 0.00173498 0.0006815 0.00161165 0.000950346 0.00108972 0.000270114 0.00112584 0.000172085 7.51867e-06 7.51867e-06 7.51867e-06 0 0 0 0 0
 2 13 -1 -1 -1 : 1 1.5625 60.9375 20 6.01623e-06 0.00132313 0.00189348 0.00168135 0.00173498 0.0006815 0.00161165 0.000950346 0.00108972 0.000270114 0.00112584 0.000172085 7.51867e-06 7.51867e-06 7.51867e-06 0 0 0 0 0
