 2  1  0  0  7  1
 2  1  0  1  7  1
 2  1  0  2  7  1
 2  1  0  3  7  1
 2  1  0  4  7  1
 2  1  0  5  7  1
 2  1  0  6  7  1
 2  1  0  7  7  1
 2  1  1  0  7  1
 2  1  1  1  7  1
 2  1  1  2  7  1
 2  1  1  3  7  1
 2  1  1  4  7  1
 2  1  1  5  7  1
 2  1  1  6  7  1
 2  1  1  7  7  1
 2  1  2  0  7  1
 2  1  2  1  7  1
 2  1  2  2  7  1
 2  1  2  3  7  1
 2  1  2  4  7  1
 2  1  2  5  7  1
 2  1  2  6  7  1
 2  1  2  7  7  1
 2  1  3  0  7  1
 2  1  3  1  7  1
 2  1  3  2  7  1
 2  1  3  3  7  1
 2  1  3  4  7  1
 2  1  3  5  7  1
 2  1  3  6  7  1
 2  1  3  7  7  1
 2  1  4  0  7  1
 2  1  4  1  7  1
 2  1  4  2  7  1
 2  1  4  3  7  1
 2  1  4  4  7  1
 2  1  4  5  7  1
 2  1  4  6  7  1
 2  1  4  7  7  1
 2  1  5  0  7  1
 2  1  5  1  7  1
 2  1  5  2  7  1
 2  1  5  3  7  1
 2  1  5  4  7  1
 2  1  5  5  7  1
 2  1  5  6  7  1
 2  1  5  7  7  1
 2  1  6  0  7  1
 2  1  6  1  7  1
 2  1  6  2  7  1
 2  1  6  3  7  1
 2  1  6  4  7  1
 2  1  6  5  7  1
 2  1  6  6  7  1
 2  1  6  7  7  1
 2  1  7  0  7  1
 2  1  7  1  7  1
 2  1  7  2  7  1
 2  1  7  3  7  1
 2  1  7  4  7  1
 2  1  7  5  7  1
 2  1  7  6  7  1
 2  1  7  7  7  1
 2  1  8  0  7  1
 2  1  8  1  7  1
 2  1  8  2  7  1
 2  1  8  3  7  1
 2  1  8  4  7  1
 2  1  8  5  7  1
 2  1  8  6  7  1
 2  1  8  7  7  1
 2  1  9  0  7  1
 2  1  9  1  7  1
 2  1  9  2  7  1
 2  1  9  3  7  1
 2  1  9  4  7  1
 2  1  9  5  7  1
 2  1  9  6  7  1
 2  1  9  7  7  1
 2  1 10  0  7  1
 2  1 10  1  7  1
 2  1 10  2  7  1
 2  1 10  3  7  1
 2  1 10  4  7  1
 2  1 10  5  7  1
 2  1 10  6  7  1
 2  1 10  7  7  1
 2  1 11  0  7  1
 2  1 11  1  7  1
 2  1 11  2  7  1
 2  1 11  3  7  1
 2  1 11  4  7  1
 2  1 11  5  7  1
 2  1 11  6  7  1
 2  1 11  7  7  1
 2  1 12  0  7  1
 2  1 12  1  7  1
 2  1 12  2  7  1
 2  1 12  3  7  1
 2  1 12  4  7  1
 2  1 12  5  7  1
 2  1 12  6  7  1
 2  1 12  7  7  1
 2  1 13  0  7  1
 2  1 13  1  7  1
 2  1 13  2  7  1
 2  1 13  3  7  1
 2  1 13  4  7  1
 2  1 13  5  7  1
 2  1 13  6  7  1
 2  1 13  7  7  1
 2  1 14  0  7  1
 2  1 14  1  7  1
 2  1 14  2  7  1
 2  1 14  3  7  1
 2  1 14  4  7  1
 2  1 14  5  7  1
 2  1 14  6  7  1
 2  1 14  7  7  1
 2  1 15  0  7  1
 2  1 15  1  7  1
 2  1 15  2  7  1
 2  1 15  3  7  1
 2  1 15  4  7  1
 2  1 15  5  7  1
 2  1 15  6  7  1
 2  1 15  7  7  1
 2  1 16  0  7  1
 2  1 16  1  7  1
 2  1 16  2  7  1
 2  1 16  3  7  1
 2  1 16  4  7  1
 2  1 16  5  7  1
 2  1 16  6  7  1
 2  1 16  7  7  1
 2  1 17  0  7  1
 2  1 17  1  7  1
 2  1 17  2  7  1
 2  1 17  3  7  1
 2  1 17  4  7  1
 2  1 17  5  7  1
 2  1 17  6  7  1
 2  1 17  7  7  1
 2  1 18  0  7  1
 2  1 18  1  7  1
 2  1 18  2  7  1
 2  1 18  3  7  1
 2  1 18  4  7  1
 2  1 18  5  7  1
 2  1 18  6  7  1
 2  1 18  7  7  1
 2  1 19  0  7  1
 2  1 19  1  7  1
 2  1 19  2  7  1
 2  1 19  3  7  1
 2  1 19  4  7  1
 2  1 19  5  7  1
 2  1 19  6  7  1
 2  1 19  7  7  1
 2  1 20  0  7  1
 2  1 20  1  7  1
 2  1 20  2  7  1
 2  1 20  3  7  1
 2  1 20  4  7  1
 2  1 20  5  7  1
 2  1 20  6  7  1
 2  1 20  7  7  1
 2  1 21  0  7  1
 2  1 21  1  7  1
 2  1 21  2  7  1
 2  1 21  3  7  1
 2  1 21  4  7  1
 2  1 21  5  7  1
 2  1 21  6  7  1
 2  1 21  7  7  1
 2  1 22  0  7  1
 2  1 22  1  7  1
 2  1 22  2  7  1
 2  1 22  3  7  1
 2  1 22  4  7  1
 2  1 22  5  7  1
 2  1 22  6  7  1
 2  1 22  7  7  1
 2  1 23  0  7  1
 2  1 23  1  7  1
 2  1 23  2  7  1
 2  1 23  3  7  1
 2  1 23  4  7  1
 2  1 23  5  7  1
 2  1 23  6  7  1
 2  1 23  7  7  1
 2 11  0  0  7  1
 2 11  0  1  7  1
 2 11  0  2  7  1
 2 11  0  3  7  1
 2 11  0  4  7  1
 2 11  0  5  7  1
 2 11  0  6  7  1
 2 11  0  7  7  1
 2 11  1  0  7  1
 2 11  1  1  7  1
 2 11  1  2  7  1
 2 11  1  3  7  1
 2 11  1  4  7  1
 2 11  1  5  7  1
 2 11  1  6  7  1
 2 11  1  7  7  1
 2 11  2  0  7  1
 2 11  2  1  7  1
 2 11  2  2  7  1
 2 11  2  3  7  1
 2 11  2  4  7  1
 2 11  2  5  7  1
 2 11  2  6  7  1
 2 11  2  7  7  1
 2 11  3  0  7  1
 2 11  3  1  7  1
 2 11  3  2  7  1
 2 11  3  3  7  1
 2 11  3  4  7  1
 2 11  3  5  7  1
 2 11  3  6  7  1
 2 11  3  7  7  1
 2 11  4  0  7  1
 2 11  4  1  7  1
 2 11  4  2  7  1
 2 11  4  3  7  1
 2 11  4  4  7  1
 2 11  4  5  7  1
 2 11  4  6  7  1
 2 11  4  7  7  1
 2 11  5  0  7  1
 2 11  5  1  7  1
 2 11  5  2  7  1
 2 11  5  3  7  1
 2 11  5  4  7  1
 2 11  5  5  7  1
 2 11  5  6  7  1
 2 11  5  7  7  1
 2 11  6  0  7  1
 2 11  6  1  7  1
 2 11  6  2  7  1
 2 11  6  3  7  1
 2 11  6  4  7  1
 2 11  6  5  7  1
 2 11  6  6  7  1
 2 11  6  7  7  1
 2 11  7  0  7  1
 2 11  7  1  7  1
 2 11  7  2  7  1
 2 11  7  3  7  1
 2 11  7  4  7  1
 2 11  7  5  7  1
 2 11  7  6  7  1
 2 11  7  7  7  1
 2 11  8  0  7  1
 2 11  8  1  7  1
 2 11  8  2  7  1
 2 11  8  3  7  1
 2 11  8  4  7  1
 2 11  8  5  7  1
 2 11  8  6  7  1
 2 11  8  7  7  1
 2 11  9  0  7  1
 2 11  9  1  7  1
 2 11  9  2  7  1
 2 11  9  3  7  1
 2 11  9  4  7  1
 2 11  9  5  7  1
 2 11  9  6  7  1
 2 11  9  7  7  1
 2 11 10  0  7  1
 2 11 10  1  7  1
 2 11 10  2  7  1
 2 11 10  3  7  1
 2 11 10  4  7  1
 2 11 10  5  7  1
 2 11 10  6  7  1
 2 11 10  7  7  1
 2 11 11  0  7  1
 2 11 11  1  7  1
 2 11 11  2  7  1
 2 11 11  3  7  1
 2 11 11  4  7  1
 2 11 11  5  7  1
 2 11 11  6  7  1
 2 11 11  7  7  1
 2 11 12  0  7  1
 2 11 12  1  7  1
 2 11 12  2  7  1
 2 11 12  3  7  1
 2 11 12  4  7  1
 2 11 12  5  7  1
 2 11 12  6  7  1
 2 11 12  7  7  1
 2 11 13  0  7  1
 2 11 13  1  7  1
 2 11 13  2  7  1
 2 11 13  3  7  1
 2 11 13  4  7  1
 2 11 13  5  7  1
 2 11 13  6  7  1
 2 11 13  7  7  1
 2 11 14  0  7  1
 2 11 14  1  7  1
 2 11 14  2  7  1
 2 11 14  3  7  1
 2 11 14  4  7  1
 2 11 14  5  7  1
 2 11 14  6  7  1
 2 11 14  7  7  1
 2 11 15  0  7  1
 2 11 15  1  7  1
 2 11 15  2  7  1
 2 11 15  3  7  1
 2 11 15  4  7  1
 2 11 15  5  7  1
 2 11 15  6  7  1
 2 11 15  7  7  1
 2 11 16  0  7  1
 2 11 16  1  7  1
 2 11 16  2  7  1
 2 11 16  3  7  1
 2 11 16  4  7  1
 2 11 16  5  7  1
 2 11 16  6  7  1
 2 11 16  7  7  1
 2 11 17  0  7  1
 2 11 17  1  7  1
 2 11 17  2  7  1
 2 11 17  3  7  1
 2 11 17  4  7  1
 2 11 17  5  7  1
 2 11 17  6  7  1
 2 11 17  7  7  1
 2 11 18  0  7  1
 2 11 18  1  7  1
 2 11 18  2  7  1
 2 11 18  3  7  1
 2 11 18  4  7  1
 2 11 18  5  7  1
 2 11 18  6  7  1
 2 11 18  7  7  1
 2 11 19  0  7  1
 2 11 19  1  7  1
 2 11 19  2  7  1
 2 11 19  3  7  1
 2 11 19  4  7  1
 2 11 19  5  7  1
 2 11 19  6  7  1
 2 11 19  7  7  1
 2 11 20  0  7  1
 2 11 20  1  7  1
 2 11 20  2  7  1
 2 11 20  3  7  1
 2 11 20  4  7  1
 2 11 20  5  7  1
 2 11 20  6  7  1
 2 11 20  7  7  1
 2 11 21  0  7  1
 2 11 21  1  7  1
 2 11 21  2  7  1
 2 11 21  3  7  1
 2 11 21  4  7  1
 2 11 21  5  7  1
 2 11 21  6  7  1
 2 11 21  7  7  1
 2 11 22  0  7  1
 2 11 22  1  7  1
 2 11 22  2  7  1
 2 11 22  3  7  1
 2 11 22  4  7  1
 2 11 22  5  7  1
 2 11 22  6  7  1
 2 11 22  7  7  1
 2 11 23  0  7  1
 2 11 23  1  7  1
 2 11 23  2  7  1
 2 11 23  3  7  1
 2 11 23  4  7  1
 2 11 23  5  7  1
 2 11 23  6  7  1
 2 11 23  7  7  1
 2 15  0  8  4  1
 2 15  0  9  4  1
 2 15  0 10  4  1
 2 15  0 11  4  1
 2 15  0 12  4  1
 2 15  0 13  4  1
 2 15  0 14  4  1
 2 15  0 15  4  1
 2 15  1  8  4  1
 2 15  1  9  4  1
 2 15  1 10  4  1
 2 15  1 11  4  1
 2 15  1 12  4  1
 2 15  1 13  4  1
 2 15  1 14  4  1
 2 15  1 15  4  1
 2 15  2  8  4  1
 2 15  2  9  4  1
 2 15  2 10  4  1
 2 15  2 11  4  1
 2 15  2 12  4  1
 2 15  2 13  4  1
 2 15  2 14  4  1
 2 15  2 15  4  1
 2 15  3  8  4  1
 2 15  3  9  4  1
 2 15  3 10  4  1
 2 15  3 11  4  1
 2 15  3 12  4  1
 2 15  3 13  4  1
 2 15  3 14  4  1
 2 15  3 15  4  1
 2 15  4  8  4  1
 2 15  4  9  4  1
 2 15  4 10  4  1
 2 15  4 11  4  1
 2 15  4 12  4  1
 2 15  4 13  4  1
 2 15  4 14  4  1
 2 15  4 15  4  1
 2 15  5  8  4  1
 2 15  5  9  4  1
 2 15  5 10  4  1
 2 15  5 11  4  1
 2 15  5 12  4  1
 2 15  5 13  4  1
 2 15  5 14  4  1
 2 15  5 15  4  1
 2 15  6  8  4  1
 2 15  6  9  4  1
 2 15  6 10  4  1
 2 15  6 11  4  1
 2 15  6 12  4  1
 2 15  6 13  4  1
 2 15  6 14  4  1
 2 15  6 15  4  1
 2 15  7  8  4  1
 2 15  7  9  4  1
 2 15  7 10  4  1
 2 15  7 11  4  1
 2 15  7 12  4  1
 2 15  7 13  4  1
 2 15  7 14  4  1
 2 15  7 15  4  1
 2 15  8  8  4  1
 2 15  8  9  4  1
 2 15  8 10  4  1
 2 15  8 11  4  1
 2 15  8 12  4  1
 2 15  8 13  4  1
 2 15  8 14  4  1
 2 15  8 15  4  1
 2 15  9  8  4  1
 2 15  9  9  4  1
 2 15  9 10  4  1
 2 15  9 11  4  1
 2 15  9 12  4  1
 2 15  9 13  4  1
 2 15  9 14  4  1
 2 15  9 15  4  1
 2 15 10  8  4  1
 2 15 10  9  4  1
 2 15 10 10  4  1
 2 15 10 11  4  1
 2 15 10 12  4  1
 2 15 10 13  4  1
 2 15 10 14  4  1
 2 15 10 15  4  1
 2 15 11  8  4  1
 2 15 11  9  4  1
 2 15 11 10  4  1
 2 15 11 11  4  1
 2 15 11 12  4  1
 2 15 11 13  4  1
 2 15 11 14  4  1
 2 15 11 15  4  1
 2 15 12  8  4  1
 2 15 12  9  4  1
 2 15 12 10  4  1
 2 15 12 11  4  1
 2 15 12 12  4  1
 2 15 12 13  4  1
 2 15 12 14  4  1
 2 15 12 15  4  1
 2 15 13  8  4  1
 2 15 13  9  4  1
 2 15 13 10  4  1
 2 15 13 11  4  1
 2 15 13 12  4  1
 2 15 13 13  4  1
 2 15 13 14  4  1
 2 15 13 15  4  1
 2 15 14  8  4  1
 2 15 14  9  4  1
 2 15 14 10  4  1
 2 15 14 11  4  1
 2 15 14 12  4  1
 2 15 14 13  4  1
 2 15 14 14  4  1
 2 15 14 15  4  1
 2 15 15  8  4  1
 2 15 15  9  4  1
 2 15 15 10  4  1
 2 15 15 11  4  1
 2 15 15 12  4  1
 2 15 15 13  4  1
 2 15 15 14  4  1
 2 15 15 15  4  1
 2 15 16  8  4  1
 2 15 16  9  4  1
 2 15 16 10  4  1
 2 15 16 11  4  1
 2 15 16 12  4  1
 2 15 16 13  4  1
 2 15 16 14  4  1
 2 15 16 15  4  1
 2 15 17  8  4  1
 2 15 17  9  4  1
 2 15 17 10  4  1
 2 15 17 11  4  1
 2 15 17 12  4  1
 2 15 17 13  4  1
 2 15 17 14  4  1
 2 15 17 15  4  1
 2 15 18  8  4  1
 2 15 18  9  4  1
 2 15 18 10  4  1
 2 15 18 11  4  1
 2 15 18 12  4  1
 2 15 18 13  4  1
 2 15 18 14  4  1
 2 15 18 15  4  1
 2 15 19  8  4  1
 2 15 19  9  4  1
 2 15 19 10  4  1
 2 15 19 11  4  1
 2 15 19 12  4  1
 2 15 19 13  4  1
 2 15 19 14  4  1
 2 15 19 15  4  1
 2 15 20  8  4  1
 2 15 20  9  4  1
 2 15 20 10  4  1
 2 15 20 11  4  1
 2 15 20 12  4  1
 2 15 20 13  4  1
 2 15 20 14  4  1
 2 15 20 15  4  1
 2 15 21  8  4  1
 2 15 21  9  4  1
 2 15 21 10  4  1
 2 15 21 11  4  1
 2 15 21 12  4  1
 2 15 21 13  4  1
 2 15 21 14  4  1
 2 15 21 15  4  1
 2 15 22  8  4  1
 2 15 22  9  4  1
 2 15 22 10  4  1
 2 15 22 11  4  1
 2 15 22 12  4  1
 2 15 22 13  4  1
 2 15 22 14  4  1
 2 15 22 15  4  1
 2 15 23  8  4  1
 2 15 23  9  4  1
 2 15 23 10  4  1
 2 15 23 11  4  1
 2 15 23 12  4  1
 2 15 23 13  4  1
 2 15 23 14  4  1
 2 15 23 15  4  1
 2 16  0  0 10  1
 2 16  0  1 10  1
 2 16  0  2 10  1
 2 16  0  3 10  1
 2 16  0  4 10  1
 2 16  0  5 10  1
 2 16  0  6 10  1
 2 16  0  7 10  1
 2 16  1  0 10  1
 2 16  1  1 10  1
 2 16  1  2 10  1
 2 16  1  3 10  1
 2 16  1  4 10  1
 2 16  1  5 10  1
 2 16  1  6 10  1
 2 16  1  7 10  1
 2 16  2  0 10  1
 2 16  2  1 10  1
 2 16  2  2 10  1
 2 16  2  3 10  1
 2 16  2  4 10  1
 2 16  2  5 10  1
 2 16  2  6 10  1
 2 16  2  7 10  1
 2 16  3  0 10  1
 2 16  3  1 10  1
 2 16  3  2 10  1
 2 16  3  3 10  1
 2 16  3  4 10  1
 2 16  3  5 10  1
 2 16  3  6 10  1
 2 16  3  7 10  1
 2 16  4  0 10  1
 2 16  4  1 10  1
 2 16  4  2 10  1
 2 16  4  3 10  1
 2 16  4  4 10  1
 2 16  4  5 10  1
 2 16  4  6 10  1
 2 16  4  7 10  1
 2 16  5  0 10  1
 2 16  5  1 10  1
 2 16  5  2 10  1
 2 16  5  3 10  1
 2 16  5  4 10  1
 2 16  5  5 10  1
 2 16  5  6 10  1
 2 16  5  7 10  1
 2 16  6  0 10  1
 2 16  6  1 10  1
 2 16  6  2 10  1
 2 16  6  3 10  1
 2 16  6  4 10  1
 2 16  6  5 10  1
 2 16  6  6 10  1
 2 16  6  7 10  1
 2 16  7  0 10  1
 2 16  7  1 10  1
 2 16  7  2 10  1
 2 16  7  3 10  1
 2 16  7  4 10  1
 2 16  7  5 10  1
 2 16  7  6 10  1
 2 16  7  7 10  1
 2 16  8  0 10  1
 2 16  8  1 10  1
 2 16  8  2 10  1
 2 16  8  3 10  1
 2 16  8  4 10  1
 2 16  8  5 10  1
 2 16  8  6 10  1
 2 16  8  7 10  1
 2 16  9  0 10  1
 2 16  9  1 10  1
 2 16  9  2 10  1
 2 16  9  3 10  1
 2 16  9  4 10  1
 2 16  9  5 10  1
 2 16  9  6 10  1
 2 16  9  7 10  1
 2 16 10  0 10  1
 2 16 10  1 10  1
 2 16 10  2 10  1
 2 16 10  3 10  1
 2 16 10  4 10  1
 2 16 10  5 10  1
 2 16 10  6 10  1
 2 16 10  7 10  1
 2 16 11  0 10  1
 2 16 11  1 10  1
 2 16 11  2 10  1
 2 16 11  3 10  1
 2 16 11  4 10  1
 2 16 11  5 10  1
 2 16 11  6 10  1
 2 16 11  7 10  1
 2 16 12  0 10  1
 2 16 12  1 10  1
 2 16 12  2 10  1
 2 16 12  3 10  1
 2 16 12  4 10  1
 2 16 12  5 10  1
 2 16 12  6 10  1
 2 16 12  7 10  1
 2 16 13  0 10  1
 2 16 13  1 10  1
 2 16 13  2 10  1
 2 16 13  3 10  1
 2 16 13  4 10  1
 2 16 13  5 10  1
 2 16 13  6 10  1
 2 16 13  7 10  1
 2 16 14  0 10  1
 2 16 14  1 10  1
 2 16 14  2 10  1
 2 16 14  3 10  1
 2 16 14  4 10  1
 2 16 14  5 10  1
 2 16 14  6 10  1
 2 16 14  7 10  1
 2 16 15  0 10  1
 2 16 15  1 10  1
 2 16 15  2 10  1
 2 16 15  3 10  1
 2 16 15  4 10  1
 2 16 15  5 10  1
 2 16 15  6 10  1
 2 16 15  7 10  1
 2 16 16  0 10  1
 2 16 16  1 10  1
 2 16 16  2 10  1
 2 16 16  3 10  1
 2 16 16  4 10  1
 2 16 16  5 10  1
 2 16 16  6 10  1
 2 16 16  7 10  1
 2 16 17  0 10  1
 2 16 17  1 10  1
 2 16 17  2 10  1
 2 16 17  3 10  1
 2 16 17  4 10  1
 2 16 17  5 10  1
 2 16 17  6 10  1
 2 16 17  7 10  1
 2 16 18  0 10  1
 2 16 18  1 10  1
 2 16 18  2 10  1
 2 16 18  3 10  1
 2 16 18  4 10  1
 2 16 18  5 10  1
 2 16 18  6 10  1
 2 16 18  7 10  1
 2 16 19  0 10  1
 2 16 19  1 10  1
 2 16 19  2 10  1
 2 16 19  3 10  1
 2 16 19  4 10  1
 2 16 19  5 10  1
 2 16 19  6 10  1
 2 16 19  7 10  1
 2 16 20  0 10  1
 2 16 20  1 10  1
 2 16 20  2 10  1
 2 16 20  3 10  1
 2 16 20  4 10  1
 2 16 20  5 10  1
 2 16 20  6 10  1
 2 16 20  7 10  1
 2 16 21  0 10  1
 2 16 21  1 10  1
 2 16 21  2 10  1
 2 16 21  3 10  1
 2 16 21  4 10  1
 2 16 21  5 10  1
 2 16 21  6 10  1
 2 16 21  7 10  1
 2 16 22  0 10  1
 2 16 22  1 10  1
 2 16 22  2 10  1
 2 16 22  3 10  1
 2 16 22  4 10  1
 2 16 22  5 10  1
 2 16 22  6 10  1
 2 16 22  7 10  1
 2 16 23  0 10  1
 2 16 23  1 10  1
 2 16 23  2 10  1
 2 16 23  3 10  1
 2 16 23  4 10  1
 2 16 23  5 10  1
 2 16 23  6 10  1
 2 16 23  7 10  1
 2 23  0  0  1  1
 2 23  0  1  1  1
 2 23  0  2  1  1
 2 23  0  3  1  1
 2 23  0  4  1  1
 2 23  0  5  1  1
 2 23  0  6  1  1
 2 23  0  7  1  1
 2 23  1  0  1  1
 2 23  1  1  1  1
 2 23  1  2  1  1
 2 23  1  3  1  1
 2 23  1  4  1  1
 2 23  1  5  1  1
 2 23  1  6  1  1
 2 23  1  7  1  1
 2 23  2  0  1  1
 2 23  2  1  1  1
 2 23  2  2  1  1
 2 23  2  3  1  1
 2 23  2  4  1  1
 2 23  2  5  1  1
 2 23  2  6  1  1
 2 23  2  7  1  1
 2 23  3  0  1  1
 2 23  3  1  1  1
 2 23  3  2  1  1
 2 23  3  3  1  1
 2 23  3  4  1  1
 2 23  3  5  1  1
 2 23  3  6  1  1
 2 23  3  7  1  1
 2 23  4  0  1  1
 2 23  4  1  1  1
 2 23  4  2  1  1
 2 23  4  3  1  1
 2 23  4  4  1  1
 2 23  4  5  1  1
 2 23  4  6  1  1
 2 23  4  7  1  1
 2 23  5  0  1  1
 2 23  5  1  1  1
 2 23  5  2  1  1
 2 23  5  3  1  1
 2 23  5  4  1  1
 2 23  5  5  1  1
 2 23  5  6  1  1
 2 23  5  7  1  1
 2 23  6  0  1  1
 2 23  6  1  1  1
 2 23  6  2  1  1
 2 23  6  3  1  1
 2 23  6  4  1  1
 2 23  6  5  1  1
 2 23  6  6  1  1
 2 23  6  7  1  1
 2 23  7  0  1  1
 2 23  7  1  1  1
 2 23  7  2  1  1
 2 23  7  3  1  1
 2 23  7  4  1  1
 2 23  7  5  1  1
 2 23  7  6  1  1
 2 23  7  7  1  1
 2 23  8  0  1  1
 2 23  8  1  1  1
 2 23  8  2  1  1
 2 23  8  3  1  1
 2 23  8  4  1  1
 2 23  8  5  1  1
 2 23  8  6  1  1
 2 23  8  7  1  1
 2 23  9  0  1  1
 2 23  9  1  1  1
 2 23  9  2  1  1
 2 23  9  3  1  1
 2 23  9  4  1  1
 2 23  9  5  1  1
 2 23  9  6  1  1
 2 23  9  7  1  1
 2 23 10  0  1  1
 2 23 10  1  1  1
 2 23 10  2  1  1
 2 23 10  3  1  1
 2 23 10  4  1  1
 2 23 10  5  1  1
 2 23 10  6  1  1
 2 23 10  7  1  1
 2 23 11  0  1  1
 2 23 11  1  1  1
 2 23 11  2  1  1
 2 23 11  3  1  1
 2 23 11  4  1  1
 2 23 11  5  1  1
 2 23 11  6  1  1
 2 23 11  7  1  1
 2 23 12  0  1  1
 2 23 12  1  1  1
 2 23 12  2  1  1
 2 23 12  3  1  1
 2 23 12  4  1  1
 2 23 12  5  1  1
 2 23 12  6  1  1
 2 23 12  7  1  1
 2 23 13  0  1  1
 2 23 13  1  1  1
 2 23 13  2  1  1
 2 23 13  3  1  1
 2 23 13  4  1  1
 2 23 13  5  1  1
 2 23 13  6  1  1
 2 23 13  7  1  1
 2 23 14  0  1  1
 2 23 14  1  1  1
 2 23 14  2  1  1
 2 23 14  3  1  1
 2 23 14  4  1  1
 2 23 14  5  1  1
 2 23 14  6  1  1
 2 23 14  7  1  1
 2 23 15  0  1  1
 2 23 15  1  1  1
 2 23 15  2  1  1
 2 23 15  3  1  1
 2 23 15  4  1  1
 2 23 15  5  1  1
 2 23 15  6  1  1
 2 23 15  7  1  1
 2 23 16  0  1  1
 2 23 16  1  1  1
 2 23 16  2  1  1
 2 23 16  3  1  1
 2 23 16  4  1  1
 2 23 16  5  1  1
 2 23 16  6  1  1
 2 23 16  7  1  1
 2 23 17  0  1  1
 2 23 17  1  1  1
 2 23 17  2  1  1
 2 23 17  3  1  1
 2 23 17  4  1  1
 2 23 17  5  1  1
 2 23 17  6  1  1
 2 23 17  7  1  1
 2 23 18  0  1  1
 2 23 18  1  1  1
 2 23 18  2  1  1
 2 23 18  3  1  1
 2 23 18  4  1  1
 2 23 18  5  1  1
 2 23 18  6  1  1
 2 23 18  7  1  1
 2 23 19  0  1  1
 2 23 19  1  1  1
 2 23 19  2  1  1
 2 23 19  3  1  1
 2 23 19  4  1  1
 2 23 19  5  1  1
 2 23 19  6  1  1
 2 23 19  7  1  1
 2 23 20  0  1  1
 2 23 20  1  1  1
 2 23 20  2  1  1
 2 23 20  3  1  1
 2 23 20  4  1  1
 2 23 20  5  1  1
 2 23 20  6  1  1
 2 23 20  7  1  1
 2 23 21  0  1  1
 2 23 21  1  1  1
 2 23 21  2  1  1
 2 23 21  3  1  1
 2 23 21  4  1  1
 2 23 21  5  1  1
 2 23 21  6  1  1
 2 23 21  7  1  1
 2 23 22  0  1  1
 2 23 22  1  1  1
 2 23 22  2  1  1
 2 23 22  3  1  1
 2 23 22  4  1  1
 2 23 22  5  1  1
 2 23 22  6  1  1
 2 23 22  7  1  1
 2 23 23  0  1  1
 2 23 23  1  1  1
 2 23 23  2  1  1
 2 23 23  3  1  1
 2 23 23  4  1  1
 2 23 23  5  1  1
 2 23 23  6  1  1
 2 23 23  7  1  1
 2 23  0  8  1  1
 2 23  0  9  1  1
 2 23  0 10  1  1
 2 23  0 11  1  1
 2 23  0 12  1  1
 2 23  0 13  1  1
 2 23  0 14  1  1
 2 23  0 15  1  1
 2 23  1  8  1  1
 2 23  1  9  1  1
 2 23  1 10  1  1
 2 23  1 11  1  1
 2 23  1 12  1  1
 2 23  1 13  1  1
 2 23  1 14  1  1
 2 23  1 15  1  1
 2 23  2  8  1  1
 2 23  2  9  1  1
 2 23  2 10  1  1
 2 23  2 11  1  1
 2 23  2 12  1  1
 2 23  2 13  1  1
 2 23  2 14  1  1
 2 23  2 15  1  1
 2 23  3  8  1  1
 2 23  3  9  1  1
 2 23  3 10  1  1
 2 23  3 11  1  1
 2 23  3 12  1  1
 2 23  3 13  1  1
 2 23  3 14  1  1
 2 23  3 15  1  1
 2 23  4  8  1  1
 2 23  4  9  1  1
 2 23  4 10  1  1
 2 23  4 11  1  1
 2 23  4 12  1  1
 2 23  4 13  1  1
 2 23  4 14  1  1
 2 23  4 15  1  1
 2 23  5  8  1  1
 2 23  5  9  1  1
 2 23  5 10  1  1
 2 23  5 11  1  1
 2 23  5 12  1  1
 2 23  5 13  1  1
 2 23  5 14  1  1
 2 23  5 15  1  1
 2 23  6  8  1  1
 2 23  6  9  1  1
 2 23  6 10  1  1
 2 23  6 11  1  1
 2 23  6 12  1  1
 2 23  6 13  1  1
 2 23  6 14  1  1
 2 23  6 15  1  1
 2 23  7  8  1  1
 2 23  7  9  1  1
 2 23  7 10  1  1
 2 23  7 11  1  1
 2 23  7 12  1  1
 2 23  7 13  1  1
 2 23  7 14  1  1
 2 23  7 15  1  1
 2 23  8  8  1  1
 2 23  8  9  1  1
 2 23  8 10  1  1
 2 23  8 11  1  1
 2 23  8 12  1  1
 2 23  8 13  1  1
 2 23  8 14  1  1
 2 23  8 15  1  1
 2 23  9  8  1  1
 2 23  9  9  1  1
 2 23  9 10  1  1
 2 23  9 11  1  1
 2 23  9 12  1  1
 2 23  9 13  1  1
 2 23  9 14  1  1
 2 23  9 15  1  1
 2 23 10  8  1  1
 2 23 10  9  1  1
 2 23 10 10  1  1
 2 23 10 11  1  1
 2 23 10 12  1  1
 2 23 10 13  1  1
 2 23 10 14  1  1
 2 23 10 15  1  1
 2 23 11  8  1  1
 2 23 11  9  1  1
 2 23 11 10  1  1
 2 23 11 11  1  1
 2 23 11 12  1  1
 2 23 11 13  1  1
 2 23 11 14  1  1
 2 23 11 15  1  1
 2 23 12  8  1  1
 2 23 12  9  1  1
 2 23 12 10  1  1
 2 23 12 11  1  1
 2 23 12 12  1  1
 2 23 12 13  1  1
 2 23 12 14  1  1
 2 23 12 15  1  1
 2 23 13  8  1  1
 2 23 13  9  1  1
 2 23 13 10  1  1
 2 23 13 11  1  1
 2 23 13 12  1  1
 2 23 13 13  1  1
 2 23 13 14  1  1
 2 23 13 15  1  1
 2 23 14  8  1  1
 2 23 14  9  1  1
 2 23 14 10  1  1
 2 23 14 11  1  1
 2 23 14 12  1  1
 2 23 14 13  1  1
 2 23 14 14  1  1
 2 23 14 15  1  1
 2 23 15  8  1  1
 2 23 15  9  1  1
 2 23 15 10  1  1
 2 23 15 11  1  1
 2 23 15 12  1  1
 2 23 15 13  1  1
 2 23 15 14  1  1
 2 23 15 15  1  1
 2 23 16  8  1  1
 2 23 16  9  1  1
 2 23 16 10  1  1
 2 23 16 11  1  1
 2 23 16 12  1  1
 2 23 16 13  1  1
 2 23 16 14  1  1
 2 23 16 15  1  1
 2 23 17  8  1  1
 2 23 17  9  1  1
 2 23 17 10  1  1
 2 23 17 11  1  1
 2 23 17 12  1  1
 2 23 17 13  1  1
 2 23 17 14  1  1
 2 23 17 15  1  1
 2 23 18  8  1  1
 2 23 18  9  1  1
 2 23 18 10  1  1
 2 23 18 11  1  1
 2 23 18 12  1  1
 2 23 18 13  1  1
 2 23 18 14  1  1
 2 23 18 15  1  1
 2 23 19  8  1  1
 2 23 19  9  1  1
 2 23 19 10  1  1
 2 23 19 11  1  1
 2 23 19 12  1  1
 2 23 19 13  1  1
 2 23 19 14  1  1
 2 23 19 15  1  1
 2 23 20  8  1  1
 2 23 20  9  1  1
 2 23 20 10  1  1
 2 23 20 11  1  1
 2 23 20 12  1  1
 2 23 20 13  1  1
 2 23 20 14  1  1
 2 23 20 15  1  1
 2 23 21  8  1  1
 2 23 21  9  1  1
 2 23 21 10  1  1
 2 23 21 11  1  1
 2 23 21 12  1  1
 2 23 21 13  1  1
 2 23 21 14  1  1
 2 23 21 15  1  1
 2 23 22  8  1  1
 2 23 22  9  1  1
 2 23 22 10  1  1
 2 23 22 11  1  1
 2 23 22 12  1  1
 2 23 22 13  1  1
 2 23 22 14  1  1
 2 23 22 15  1  1
 2 23 23  8  1  1
 2 23 23  9  1  1
 2 23 23 10  1  1
 2 23 23 11  1  1
 2 23 23 12  1  1
 2 23 23 13  1  1
 2 23 23 14  1  1
 2 23 23 15  1  1
 2 25  0  8  2  1
 2 25  0  9  2  1
 2 25  0 10  2  1
 2 25  0 11  2  1
 2 25  0 12  2  1
 2 25  0 13  2  1
 2 25  0 14  2  1
 2 25  0 15  2  1
 2 25  1  8  2  1
 2 25  1  9  2  1
 2 25  1 10  2  1
 2 25  1 11  2  1
 2 25  1 12  2  1
 2 25  1 13  2  1
 2 25  1 14  2  1
 2 25  1 15  2  1
 2 25  2  8  2  1
 2 25  2  9  2  1
 2 25  2 10  2  1
 2 25  2 11  2  1
 2 25  2 12  2  1
 2 25  2 13  2  1
 2 25  2 14  2  1
 2 25  2 15  2  1
 2 25  3  8  2  1
 2 25  3  9  2  1
 2 25  3 10  2  1
 2 25  3 11  2  1
 2 25  3 12  2  1
 2 25  3 13  2  1
 2 25  3 14  2  1
 2 25  3 15  2  1
 2 25  4  8  2  1
 2 25  4  9  2  1
 2 25  4 10  2  1
 2 25  4 11  2  1
 2 25  4 12  2  1
 2 25  4 13  2  1
 2 25  4 14  2  1
 2 25  4 15  2  1
 2 25  5  8  2  1
 2 25  5  9  2  1
 2 25  5 10  2  1
 2 25  5 11  2  1
 2 25  5 12  2  1
 2 25  5 13  2  1
 2 25  5 14  2  1
 2 25  5 15  2  1
 2 25  6  8  2  1
 2 25  6  9  2  1
 2 25  6 10  2  1
 2 25  6 11  2  1
 2 25  6 12  2  1
 2 25  6 13  2  1
 2 25  6 14  2  1
 2 25  6 15  2  1
 2 25  7  8  2  1
 2 25  7  9  2  1
 2 25  7 10  2  1
 2 25  7 11  2  1
 2 25  7 12  2  1
 2 25  7 13  2  1
 2 25  7 14  2  1
 2 25  7 15  2  1
 2 25  8  8  2  1
 2 25  8  9  2  1
 2 25  8 10  2  1
 2 25  8 11  2  1
 2 25  8 12  2  1
 2 25  8 13  2  1
 2 25  8 14  2  1
 2 25  8 15  2  1
 2 25  9  8  2  1
 2 25  9  9  2  1
 2 25  9 10  2  1
 2 25  9 11  2  1
 2 25  9 12  2  1
 2 25  9 13  2  1
 2 25  9 14  2  1
 2 25  9 15  2  1
 2 25 10  8  2  1
 2 25 10  9  2  1
 2 25 10 10  2  1
 2 25 10 11  2  1
 2 25 10 12  2  1
 2 25 10 13  2  1
 2 25 10 14  2  1
 2 25 10 15  2  1
 2 25 11  8  2  1
 2 25 11  9  2  1
 2 25 11 10  2  1
 2 25 11 11  2  1
 2 25 11 12  2  1
 2 25 11 13  2  1
 2 25 11 14  2  1
 2 25 11 15  2  1
 2 25 12  8  2  1
 2 25 12  9  2  1
 2 25 12 10  2  1
 2 25 12 11  2  1
 2 25 12 12  2  1
 2 25 12 13  2  1
 2 25 12 14  2  1
 2 25 12 15  2  1
 2 25 13  8  2  1
 2 25 13  9  2  1
 2 25 13 10  2  1
 2 25 13 11  2  1
 2 25 13 12  2  1
 2 25 13 13  2  1
 2 25 13 14  2  1
 2 25 13 15  2  1
 2 25 14  8  2  1
 2 25 14  9  2  1
 2 25 14 10  2  1
 2 25 14 11  2  1
 2 25 14 12  2  1
 2 25 14 13  2  1
 2 25 14 14  2  1
 2 25 14 15  2  1
 2 25 15  8  2  1
 2 25 15  9  2  1
 2 25 15 10  2  1
 2 25 15 11  2  1
 2 25 15 12  2  1
 2 25 15 13  2  1
 2 25 15 14  2  1
 2 25 15 15  2  1
 2 25 16  8  2  1
 2 25 16  9  2  1
 2 25 16 10  2  1
 2 25 16 11  2  1
 2 25 16 12  2  1
 2 25 16 13  2  1
 2 25 16 14  2  1
 2 25 16 15  2  1
 2 25 17  8  2  1
 2 25 17  9  2  1
 2 25 17 10  2  1
 2 25 17 11  2  1
 2 25 17 12  2  1
 2 25 17 13  2  1
 2 25 17 14  2  1
 2 25 17 15  2  1
 2 25 18  8  2  1
 2 25 18  9  2  1
 2 25 18 10  2  1
 2 25 18 11  2  1
 2 25 18 12  2  1
 2 25 18 13  2  1
 2 25 18 14  2  1
 2 25 18 15  2  1
 2 25 19  8  2  1
 2 25 19  9  2  1
 2 25 19 10  2  1
 2 25 19 11  2  1
 2 25 19 12  2  1
 2 25 19 13  2  1
 2 25 19 14  2  1
 2 25 19 15  2  1
 2 25 20  8  2  1
 2 25 20  9  2  1
 2 25 20 10  2  1
 2 25 20 11  2  1
 2 25 20 12  2  1
 2 25 20 13  2  1
 2 25 20 14  2  1
 2 25 20 15  2  1
 2 25 21  8  2  1
 2 25 21  9  2  1
 2 25 21 10  2  1
 2 25 21 11  2  1
 2 25 21 12  2  1
 2 25 21 13  2  1
 2 25 21 14  2  1
 2 25 21 15  2  1
 2 25 22  8  2  1
 2 25 22  9  2  1
 2 25 22 10  2  1
 2 25 22 11  2  1
 2 25 22 12  2  1
 2 25 22 13  2  1
 2 25 22 14  2  1
 2 25 22 15  2  1
 2 25 23  8  2  1
 2 25 23  9  2  1
 2 25 23 10  2  1
 2 25 23 11  2  1
 2 25 23 12  2  1
 2 25 23 13  2  1
 2 25 23 14  2  1
 2 25 23 15  2  1
 2 29  0  0  4  1
 2 29  0  1  4  1
 2 29  0  2  4  1
 2 29  0  3  4  1
 2 29  0  4  4  1
 2 29  0  5  4  1
 2 29  0  6  4  1
 2 29  0  7  4  1
 2 29  1  0  4  1
 2 29  1  1  4  1
 2 29  1  2  4  1
 2 29  1  3  4  1
 2 29  1  4  4  1
 2 29  1  5  4  1
 2 29  1  6  4  1
 2 29  1  7  4  1
 2 29  2  0  4  1
 2 29  2  1  4  1
 2 29  2  2  4  1
 2 29  2  3  4  1
 2 29  2  4  4  1
 2 29  2  5  4  1
 2 29  2  6  4  1
 2 29  2  7  4  1
 2 29  3  0  4  1
 2 29  3  1  4  1
 2 29  3  2  4  1
 2 29  3  3  4  1
 2 29  3  4  4  1
 2 29  3  5  4  1
 2 29  3  6  4  1
 2 29  3  7  4  1
 2 29  4  0  4  1
 2 29  4  1  4  1
 2 29  4  2  4  1
 2 29  4  3  4  1
 2 29  4  4  4  1
 2 29  4  5  4  1
 2 29  4  6  4  1
 2 29  4  7  4  1
 2 29  5  0  4  1
 2 29  5  1  4  1
 2 29  5  2  4  1
 2 29  5  3  4  1
 2 29  5  4  4  1
 2 29  5  5  4  1
 2 29  5  6  4  1
 2 29  5  7  4  1
 2 29  6  0  4  1
 2 29  6  1  4  1
 2 29  6  2  4  1
 2 29  6  3  4  1
 2 29  6  4  4  1
 2 29  6  5  4  1
 2 29  6  6  4  1
 2 29  6  7  4  1
 2 29  7  0  4  1
 2 29  7  1  4  1
 2 29  7  2  4  1
 2 29  7  3  4  1
 2 29  7  4  4  1
 2 29  7  5  4  1
 2 29  7  6  4  1
 2 29  7  7  4  1
 2 29  8  0  4  1
 2 29  8  1  4  1
 2 29  8  2  4  1
 2 29  8  3  4  1
 2 29  8  4  4  1
 2 29  8  5  4  1
 2 29  8  6  4  1
 2 29  8  7  4  1
 2 29  9  0  4  1
 2 29  9  1  4  1
 2 29  9  2  4  1
 2 29  9  3  4  1
 2 29  9  4  4  1
 2 29  9  5  4  1
 2 29  9  6  4  1
 2 29  9  7  4  1
 2 29 10  0  4  1
 2 29 10  1  4  1
 2 29 10  2  4  1
 2 29 10  3  4  1
 2 29 10  4  4  1
 2 29 10  5  4  1
 2 29 10  6  4  1
 2 29 10  7  4  1
 2 29 11  0  4  1
 2 29 11  1  4  1
 2 29 11  2  4  1
 2 29 11  3  4  1
 2 29 11  4  4  1
 2 29 11  5  4  1
 2 29 11  6  4  1
 2 29 11  7  4  1
 2 29 12  0  4  1
 2 29 12  1  4  1
 2 29 12  2  4  1
 2 29 12  3  4  1
 2 29 12  4  4  1
 2 29 12  5  4  1
 2 29 12  6  4  1
 2 29 12  7  4  1
 2 29 13  0  4  1
 2 29 13  1  4  1
 2 29 13  2  4  1
 2 29 13  3  4  1
 2 29 13  4  4  1
 2 29 13  5  4  1
 2 29 13  6  4  1
 2 29 13  7  4  1
 2 29 14  0  4  1
 2 29 14  1  4  1
 2 29 14  2  4  1
 2 29 14  3  4  1
 2 29 14  4  4  1
 2 29 14  5  4  1
 2 29 14  6  4  1
 2 29 14  7  4  1
 2 29 15  0  4  1
 2 29 15  1  4  1
 2 29 15  2  4  1
 2 29 15  3  4  1
 2 29 15  4  4  1
 2 29 15  5  4  1
 2 29 15  6  4  1
 2 29 15  7  4  1
 2 29 16  0  4  1
 2 29 16  1  4  1
 2 29 16  2  4  1
 2 29 16  3  4  1
 2 29 16  4  4  1
 2 29 16  5  4  1
 2 29 16  6  4  1
 2 29 16  7  4  1
 2 29 17  0  4  1
 2 29 17  1  4  1
 2 29 17  2  4  1
 2 29 17  3  4  1
 2 29 17  4  4  1
 2 29 17  5  4  1
 2 29 17  6  4  1
 2 29 17  7  4  1
 2 29 18  0  4  1
 2 29 18  1  4  1
 2 29 18  2  4  1
 2 29 18  3  4  1
 2 29 18  4  4  1
 2 29 18  5  4  1
 2 29 18  6  4  1
 2 29 18  7  4  1
 2 29 19  0  4  1
 2 29 19  1  4  1
 2 29 19  2  4  1
 2 29 19  3  4  1
 2 29 19  4  4  1
 2 29 19  5  4  1
 2 29 19  6  4  1
 2 29 19  7  4  1
 2 29 20  0  4  1
 2 29 20  1  4  1
 2 29 20  2  4  1
 2 29 20  3  4  1
 2 29 20  4  4  1
 2 29 20  5  4  1
 2 29 20  6  4  1
 2 29 20  7  4  1
 2 29 21  0  4  1
 2 29 21  1  4  1
 2 29 21  2  4  1
 2 29 21  3  4  1
 2 29 21  4  4  1
 2 29 21  5  4  1
 2 29 21  6  4  1
 2 29 21  7  4  1
 2 29 22  0  4  1
 2 29 22  1  4  1
 2 29 22  2  4  1
 2 29 22  3  4  1
 2 29 22  4  4  1
 2 29 22  5  4  1
 2 29 22  6  4  1
 2 29 22  7  4  1
 2 29 23  0  4  1
 2 29 23  1  4  1
 2 29 23  2  4  1
 2 29 23  3  4  1
 2 29 23  4  4  1
 2 29 23  5  4  1
 2 29 23  6  4  1
 2 29 23  7  4  1
 2 31  0  0  1  1
 2 31  0  1  1  1
 2 31  0  2  1  1
 2 31  0  3  1  1
 2 31  0  4  1  1
 2 31  0  5  1  1
 2 31  0  6  1  1
 2 31  0  7  1  1
 2 31  1  0  1  1
 2 31  1  1  1  1
 2 31  1  2  1  1
 2 31  1  3  1  1
 2 31  1  4  1  1
 2 31  1  5  1  1
 2 31  1  6  1  1
 2 31  1  7  1  1
 2 31  2  0  1  1
 2 31  2  1  1  1
 2 31  2  2  1  1
 2 31  2  3  1  1
 2 31  2  4  1  1
 2 31  2  5  1  1
 2 31  2  6  1  1
 2 31  2  7  1  1
 2 31  3  0  1  1
 2 31  3  1  1  1
 2 31  3  2  1  1
 2 31  3  3  1  1
 2 31  3  4  1  1
 2 31  3  5  1  1
 2 31  3  6  1  1
 2 31  3  7  1  1
 2 31  4  0  1  1
 2 31  4  1  1  1
 2 31  4  2  1  1
 2 31  4  3  1  1
 2 31  4  4  1  1
 2 31  4  5  1  1
 2 31  4  6  1  1
 2 31  4  7  1  1
 2 31  5  0  1  1
 2 31  5  1  1  1
 2 31  5  2  1  1
 2 31  5  3  1  1
 2 31  5  4  1  1
 2 31  5  5  1  1
 2 31  5  6  1  1
 2 31  5  7  1  1
 2 31  6  0  1  1
 2 31  6  1  1  1
 2 31  6  2  1  1
 2 31  6  3  1  1
 2 31  6  4  1  1
 2 31  6  5  1  1
 2 31  6  6  1  1
 2 31  6  7  1  1
 2 31  7  0  1  1
 2 31  7  1  1  1
 2 31  7  2  1  1
 2 31  7  3  1  1
 2 31  7  4  1  1
 2 31  7  5  1  1
 2 31  7  6  1  1
 2 31  7  7  1  1
 2 31  8  0  1  1
 2 31  8  1  1  1
 2 31  8  2  1  1
 2 31  8  3  1  1
 2 31  8  4  1  1
 2 31  8  5  1  1
 2 31  8  6  1  1
 2 31  8  7  1  1
 2 31  9  0  1  1
 2 31  9  1  1  1
 2 31  9  2  1  1
 2 31  9  3  1  1
 2 31  9  4  1  1
 2 31  9  5  1  1
 2 31  9  6  1  1
 2 31  9  7  1  1
 2 31 10  0  1  1
 2 31 10  1  1  1
 2 31 10  2  1  1
 2 31 10  3  1  1
 2 31 10  4  1  1
 2 31 10  5  1  1
 2 31 10  6  1  1
 2 31 10  7  1  1
 2 31 11  0  1  1
 2 31 11  1  1  1
 2 31 11  2  1  1
 2 31 11  3  1  1
 2 31 11  4  1  1
 2 31 11  5  1  1
 2 31 11  6  1  1
 2 31 11  7  1  1
 2 31 12  0  1  1
 2 31 12  1  1  1
 2 31 12  2  1  1
 2 31 12  3  1  1
 2 31 12  4  1  1
 2 31 12  5  1  1
 2 31 12  6  1  1
 2 31 12  7  1  1
 2 31 13  0  1  1
 2 31 13  1  1  1
 2 31 13  2  1  1
 2 31 13  3  1  1
 2 31 13  4  1  1
 2 31 13  5  1  1
 2 31 13  6  1  1
 2 31 13  7  1  1
 2 31 14  0  1  1
 2 31 14  1  1  1
 2 31 14  2  1  1
 2 31 14  3  1  1
 2 31 14  4  1  1
 2 31 14  5  1  1
 2 31 14  6  1  1
 2 31 14  7  1  1
 2 31 15  0  1  1
 2 31 15  1  1  1
 2 31 15  2  1  1
 2 31 15  3  1  1
 2 31 15  4  1  1
 2 31 15  5  1  1
 2 31 15  6  1  1
 2 31 15  7  1  1
 2 31 16  0  1  1
 2 31 16  1  1  1
 2 31 16  2  1  1
 2 31 16  3  1  1
 2 31 16  4  1  1
 2 31 16  5  1  1
 2 31 16  6  1  1
 2 31 16  7  1  1
 2 31 17  0  1  1
 2 31 17  1  1  1
 2 31 17  2  1  1
 2 31 17  3  1  1
 2 31 17  4  1  1
 2 31 17  5  1  1
 2 31 17  6  1  1
 2 31 17  7  1  1
 2 31 18  0  1  1
 2 31 18  1  1  1
 2 31 18  2  1  1
 2 31 18  3  1  1
 2 31 18  4  1  1
 2 31 18  5  1  1
 2 31 18  6  1  1
 2 31 18  7  1  1
 2 31 19  0  1  1
 2 31 19  1  1  1
 2 31 19  2  1  1
 2 31 19  3  1  1
 2 31 19  4  1  1
 2 31 19  5  1  1
 2 31 19  6  1  1
 2 31 19  7  1  1
 2 31 20  0  1  1
 2 31 20  1  1  1
 2 31 20  2  1  1
 2 31 20  3  1  1
 2 31 20  4  1  1
 2 31 20  5  1  1
 2 31 20  6  1  1
 2 31 20  7  1  1
 2 31 21  0  1  1
 2 31 21  1  1  1
 2 31 21  2  1  1
 2 31 21  3  1  1
 2 31 21  4  1  1
 2 31 21  5  1  1
 2 31 21  6  1  1
 2 31 21  7  1  1
 2 31 22  0  1  1
 2 31 22  1  1  1
 2 31 22  2  1  1
 2 31 22  3  1  1
 2 31 22  4  1  1
 2 31 22  5  1  1
 2 31 22  6  1  1
 2 31 22  7  1  1
 2 31 23  0  1  1
 2 31 23  1  1  1
 2 31 23  2  1  1
 2 31 23  3  1  1
 2 31 23  4  1  1
 2 31 23  5  1  1
 2 31 23  6  1  1
 2 31 23  7  1  1
 2 31  0  8  1  1
 2 31  0  9  1  1
 2 31  0 10  1  1
 2 31  0 11  1  1
 2 31  0 12  1  1
 2 31  0 13  1  1
 2 31  0 14  1  1
 2 31  0 15  1  1
 2 31  1  8  1  1
 2 31  1  9  1  1
 2 31  1 10  1  1
 2 31  1 11  1  1
 2 31  1 12  1  1
 2 31  1 13  1  1
 2 31  1 14  1  1
 2 31  1 15  1  1
 2 31  2  8  1  1
 2 31  2  9  1  1
 2 31  2 10  1  1
 2 31  2 11  1  1
 2 31  2 12  1  1
 2 31  2 13  1  1
 2 31  2 14  1  1
 2 31  2 15  1  1
 2 31  3  8  1  1
 2 31  3  9  1  1
 2 31  3 10  1  1
 2 31  3 11  1  1
 2 31  3 12  1  1
 2 31  3 13  1  1
 2 31  3 14  1  1
 2 31  3 15  1  1
 2 31  4  8  1  1
 2 31  4  9  1  1
 2 31  4 10  1  1
 2 31  4 11  1  1
 2 31  4 12  1  1
 2 31  4 13  1  1
 2 31  4 14  1  1
 2 31  4 15  1  1
 2 31  5  8  1  1
 2 31  5  9  1  1
 2 31  5 10  1  1
 2 31  5 11  1  1
 2 31  5 12  1  1
 2 31  5 13  1  1
 2 31  5 14  1  1
 2 31  5 15  1  1
 2 31  6  8  1  1
 2 31  6  9  1  1
 2 31  6 10  1  1
 2 31  6 11  1  1
 2 31  6 12  1  1
 2 31  6 13  1  1
 2 31  6 14  1  1
 2 31  6 15  1  1
 2 31  7  8  1  1
 2 31  7  9  1  1
 2 31  7 10  1  1
 2 31  7 11  1  1
 2 31  7 12  1  1
 2 31  7 13  1  1
 2 31  7 14  1  1
 2 31  7 15  1  1
 2 31  8  8  1  1
 2 31  8  9  1  1
 2 31  8 10  1  1
 2 31  8 11  1  1
 2 31  8 12  1  1
 2 31  8 13  1  1
 2 31  8 14  1  1
 2 31  8 15  1  1
 2 31  9  8  1  1
 2 31  9  9  1  1
 2 31  9 10  1  1
 2 31  9 11  1  1
 2 31  9 12  1  1
 2 31  9 13  1  1
 2 31  9 14  1  1
 2 31  9 15  1  1
 2 31 10  8  1  1
 2 31 10  9  1  1
 2 31 10 10  1  1
 2 31 10 11  1  1
 2 31 10 12  1  1
 2 31 10 13  1  1
 2 31 10 14  1  1
 2 31 10 15  1  1
 2 31 11  8  1  1
 2 31 11  9  1  1
 2 31 11 10  1  1
 2 31 11 11  1  1
 2 31 11 12  1  1
 2 31 11 13  1  1
 2 31 11 14  1  1
 2 31 11 15  1  1
 2 31 12  8  1  1
 2 31 12  9  1  1
 2 31 12 10  1  1
 2 31 12 11  1  1
 2 31 12 12  1  1
 2 31 12 13  1  1
 2 31 12 14  1  1
 2 31 12 15  1  1
 2 31 13  8  1  1
 2 31 13  9  1  1
 2 31 13 10  1  1
 2 31 13 11  1  1
 2 31 13 12  1  1
 2 31 13 13  1  1
 2 31 13 14  1  1
 2 31 13 15  1  1
 2 31 14  8  1  1
 2 31 14  9  1  1
 2 31 14 10  1  1
 2 31 14 11  1  1
 2 31 14 12  1  1
 2 31 14 13  1  1
 2 31 14 14  1  1
 2 31 14 15  1  1
 2 31 15  8  1  1
 2 31 15  9  1  1
 2 31 15 10  1  1
 2 31 15 11  1  1
 2 31 15 12  1  1
 2 31 15 13  1  1
 2 31 15 14  1  1
 2 31 15 15  1  1
 2 31 16  8  1  1
 2 31 16  9  1  1
 2 31 16 10  1  1
 2 31 16 11  1  1
 2 31 16 12  1  1
 2 31 16 13  1  1
 2 31 16 14  1  1
 2 31 16 15  1  1
 2 31 17  8  1  1
 2 31 17  9  1  1
 2 31 17 10  1  1
 2 31 17 11  1  1
 2 31 17 12  1  1
 2 31 17 13  1  1
 2 31 17 14  1  1
 2 31 17 15  1  1
 2 31 18  8  1  1
 2 31 18  9  1  1
 2 31 18 10  1  1
 2 31 18 11  1  1
 2 31 18 12  1  1
 2 31 18 13  1  1
 2 31 18 14  1  1
 2 31 18 15  1  1
 2 31 19  8  1  1
 2 31 19  9  1  1
 2 31 19 10  1  1
 2 31 19 11  1  1
 2 31 19 12  1  1
 2 31 19 13  1  1
 2 31 19 14  1  1
 2 31 19 15  1  1
 2 31 20  8  1  1
 2 31 20  9  1  1
 2 31 20 10  1  1
 2 31 20 11  1  1
 2 31 20 12  1  1
 2 31 20 13  1  1
 2 31 20 14  1  1
 2 31 20 15  1  1
 2 31 21  8  1  1
 2 31 21  9  1  1
 2 31 21 10  1  1
 2 31 21 11  1  1
 2 31 21 12  1  1
 2 31 21 13  1  1
 2 31 21 14  1  1
 2 31 21 15  1  1
 2 31 22  8  1  1
 2 31 22  9  1  1
 2 31 22 10  1  1
 2 31 22 11  1  1
 2 31 22 12  1  1
 2 31 22 13  1  1
 2 31 22 14  1  1
 2 31 22 15  1  1
 2 31 23  8  1  1
 2 31 23  9  1  1
 2 31 23 10  1  1
 2 31 23 11  1  1
 2 31 23 12  1  1
 2 31 23 13  1  1
 2 31 23 14  1  1
 2 31 23 15  1  1
-1  2 24  8  2  1
-1  2 23  8  2  1
-1  2 22  8  2  1
-1  2 21  8  2  1
-1  2 20  8  2  1
-1  2 19  8  2  1
-1  2 18  8  2  1
-1  2 17  8  2  1
-1  2 16  8  2  1
-1  2 15  8  2  1
-1  2 14  8  2  1
-1  2 13  8  2  1
-1  2 12  8  2  1
-1  2 11  8  2  1
-1  2 10  8  2  1
-1  2  9  8  2  1
-1  2 24  9  2  1
-1  2 23  9  2  1
-1  2 22  9  2  1
-1  2 21  9  2  1
-1  2 20  9  2  1
-1  2 19  9  2  1
-1  2 18  9  2  1
-1  2 17  9  2  1
-1  2 16  9  2  1
-1  2 15  9  2  1
-1  2 14  9  2  1
-1  2 13  9  2  1
-1  2 12  9  2  1
-1  2 11  9  2  1
-1  2 10  9  2  1
-1  2  9  9  2  1
-1  2  8  9  2  1
-1  2 25 10  2  1
-1  2 24 10  2  1
-1  2 23 10  2  1
-1  2 22 10  2  1
-1  2 21 10  2  1
-1  2 20 10  2  1
-1  2 19 10  2  1
-1  2 18 10  2  1
-1  2 17 10  2  1
-1  2 16 10  2  1
-1  2 15 10  2  1
-1  2 14 10  2  1
-1  2 13 10  2  1
-1  2 12 10  2  1
-1  2 11 10  2  1
-1  2 10 10  2  1
-1  2  9 10  2  1
-1  2 25 11  2  1
-1  2 24 11  2  1
-1  2 23 11  2  1
-1  2 22 11  2  1
-1  2 21 11  2  1
-1  2 20 11  2  1
-1  2 19 11  2  1
-1  2 18 11  2  1
-1  2 17 11  2  1
-1  2 16 11  2  1
-1  2 15 11  2  1
-1  2 14 11  2  1
-1  2 13 11  2  1
-1  2 12 11  2  1
-1  2 11 11  2  1
-1  2 25 12  2  1
-1  2 24 12  2  1
-1  2 23 12  2  1
-1  2 22 12  2  1
-1  2 21 12  2  1
-1  2 20 12  2  1
-1  2 19 12  2  1
-1  2 18 12  2  1
-1  2 17 12  2  1
-1  2 16 12  2  1
-1  2 15 12  2  1
-1  2 14 12  2  1
-1  2 13 12  2  1
-1  2 12 12  2  1
-1  2 11 12  2  1
-1  2 25 13  2  1
-1  2 24 13  2  1
-1  2 23 13  2  1
-1  2 22 13  2  1
-1  2 21 13  2  1
-1  2 20 13  2  1
-1  2 19 13  2  1
-1  2 18 13  2  1
-1  2 17 13  2  1
-1  2 16 13  2  1
-1  2 15 13  2  1
-1  2 14 13  2  1
-1  2 13 13  2  1
-1  2 25 14  2  1
-1  2 24 14  2  1
-1  2 23 14  2  1
-1  2 22 14  2  1
-1  2 21 14  2  1
-1  2 20 14  2  1
-1  2 19 14  2  1
-1  2 18 14  2  1
-1  2 17 14  2  1
-1  2 16 14  2  1
-1  2 15 14  2  1
-1  2 14 14  2  1
-1  2 26 15  2  1
-1  2 25 15  2  1
-1  2 24 15  2  1
-1  2 23 15  2  1
-1  2 22 15  2  1
-1  2 21 15  2  1
-1  2 20 15  2  1
-1  2 19 15  2  1
-1  2 18 15  2  1
-1  2 17 15  2  1
-1  2 16 15  2  1
-1  2 15 15  2  1
-1  2 26 16  2  1
-1  2 25 16  2  1
-1  2 24 16  2  1
-1  2 23 16  2  1
-1  2 22 16  2  1
-1  2 21 16  2  1
-1  2 20 16  2  1
-1  2 19 16  2  1
-1  2 18 16  2  1
-1  2 17 16  2  1
-1  2 16 16  2  1
-1  2 26 17  2  1
-1  2 25 17  2  1
-1  2 24 17  2  1
-1  2 23 17  2  1
-1  2 22 17  2  1
-1  2 21 17  2  1
-1  2 20 17  2  1
-1  2 19 17  2  1
-1  2 18 17  2  1
-1  2 17 17  2  1
-1  2 16 17  2  1
-1  2 26 18  2  1
-1  2 25 18  2  1
-1  2 24 18  2  1
-1  2 23 18  2  1
-1  2 22 18  2  1
-1  2 21 18  2  1
-1  2 20 18  2  1
-1  2 19 18  2  1
-1  2 18 18  2  1
-1  2 26 19  2  1
-1  2 25 19  2  1
-1  2 24 19  2  1
-1  2 23 19  2  1
-1  2 22 19  2  1
-1  2 21 19  2  1
-1  2 20 19  2  1
-1  2 19 19  2  1
-1  2 18 19  2  1
-1  2 27 20  2  1
-1  2 26 20  2  1
-1  2 25 20  2  1
-1  2 24 20  2  1
-1  2 23 20  2  1
-1  2 22 20  2  1
-1  2 21 20  2  1
-1  2 20 20  2  1
-1  2 27 21  2  1
-1  2 26 21  2  1
-1  2 25 21  2  1
-1  2 24 21  2  1
-1  2 23 21  2  1
-1  2 22 21  2  1
-1  2 21 21  2  1
-1  2 27 22  2  1
-1  2 26 22  2  1
-1  2 25 22  2  1
-1  2 24 22  2  1
-1  2 23 22  2  1
-1  2 22 22  2  1
-1  2 27 23  2  1
-1  2 26 23  2  1
-1  2 25 23  2  1
-1  2 24 23  2  1
-1  2 23 23  2  1
-1  2 27 24  2  1
-1  2 26 24  2  1
-1  2 25 24  2  1
-1  2 24 24  2  1
-1  2 28 25  2  1
-1  2 27 25  2  1
-1  2 26 25  2  1
-1  2 28 26  2  1
-2  8  0  0  5  1
-2  8  0  1  5  1
-2  8  0  2  5  1
-2  8  0  3  5  1
-2  8  0  4  5  1
-2  8  0  5  5  1
-2  8  0  6  5  1
-2  8  0  7  5  1
-2  8  1  0  5  1
-2  8  1  1  5  1
-2  8  1  2  5  1
-2  8  1  3  5  1
-2  8  1  4  5  1
-2  8  1  5  5  1
-2  8  1  6  5  1
-2  8  1  7  5  1
-2  8  2  0  5  1
-2  8  2  1  5  1
-2  8  2  2  5  1
-2  8  2  3  5  1
-2  8  2  4  5  1
-2  8  2  5  5  1
-2  8  2  6  5  1
-2  8  2  7  5  1
-2  8  3  0  5  1
-2  8  3  1  5  1
-2  8  3  2  5  1
-2  8  3  3  5  1
-2  8  3  4  5  1
-2  8  3  5  5  1
-2  8  3  6  5  1
-2  8  3  7  5  1
-2  8  4  0  5  1
-2  8  4  1  5  1
-2  8  4  2  5  1
-2  8  4  3  5  1
-2  8  4  4  5  1
-2  8  4  5  5  1
-2  8  4  6  5  1
-2  8  4  7  5  1
-2  8  5  0  5  1
-2  8  5  1  5  1
-2  8  5  2  5  1
-2  8  5  3  5  1
-2  8  5  4  5  1
-2  8  5  5  5  1
-2  8  5  6  5  1
-2  8  5  7  5  1
-2  8  6  0  5  1
-2  8  6  1  5  1
-2  8  6  2  5  1
-2  8  6  3  5  1
-2  8  6  4  5  1
-2  8  6  5  5  1
-2  8  6  6  5  1
-2  8  6  7  5  1
-2  8  7  0  5  1
-2  8  7  1  5  1
-2  8  7  2  5  1
-2  8  7  3  5  1
-2  8  7  4  5  1
-2  8  7  5  5  1
-2  8  7  6  5  1
-2  8  7  7  5  1
-2  8  8  0  5  1
-2  8  8  1  5  1
-2  8  8  2  5  1
-2  8  8  3  5  1
-2  8  8  4  5  1
-2  8  8  5  5  1
-2  8  8  6  5  1
-2  8  8  7  5  1
-2  8  9  0  5  1
-2  8  9  1  5  1
-2  8  9  2  5  1
-2  8  9  3  5  1
-2  8  9  4  5  1
-2  8  9  5  5  1
-2  8  9  6  5  1
-2  8  9  7  5  1
-2  8 10  0  5  1
-2  8 10  1  5  1
-2  8 10  2  5  1
-2  8 10  3  5  1
-2  8 10  4  5  1
-2  8 10  5  5  1
-2  8 10  6  5  1
-2  8 10  7  5  1
-2  8 11  0  5  1
-2  8 11  1  5  1
-2  8 11  2  5  1
-2  8 11  3  5  1
-2  8 11  4  5  1
-2  8 11  5  5  1
-2  8 11  6  5  1
-2  8 11  7  5  1
-2  8 12  0  5  1
-2  8 12  1  5  1
-2  8 12  2  5  1
-2  8 12  3  5  1
-2  8 12  4  5  1
-2  8 12  5  5  1
-2  8 12  6  5  1
-2  8 12  7  5  1
-2  8 13  0  5  1
-2  8 13  1  5  1
-2  8 13  2  5  1
-2  8 13  3  5  1
-2  8 13  4  5  1
-2  8 13  5  5  1
-2  8 13  6  5  1
-2  8 13  7  5  1
-2  8 14  0  5  1
-2  8 14  1  5  1
-2  8 14  2  5  1
-2  8 14  3  5  1
-2  8 14  4  5  1
-2  8 14  5  5  1
-2  8 14  6  5  1
-2  8 14  7  5  1
-2  8 15  0  5  1
-2  8 15  1  5  1
-2  8 15  2  5  1
-2  8 15  3  5  1
-2  8 15  4  5  1
-2  8 15  5  5  1
-2  8 15  6  5  1
-2  8 15  7  5  1
-2  8 16  0  5  1
-2  8 16  1  5  1
-2  8 16  2  5  1
-2  8 16  3  5  1
-2  8 16  4  5  1
-2  8 16  5  5  1
-2  8 16  6  5  1
-2  8 16  7  5  1
-2  8 17  0  5  1
-2  8 17  1  5  1
-2  8 17  2  5  1
-2  8 17  3  5  1
-2  8 17  4  5  1
-2  8 17  5  5  1
-2  8 17  6  5  1
-2  8 17  7  5  1
-2  8 18  0  5  1
-2  8 18  1  5  1
-2  8 18  2  5  1
-2  8 18  3  5  1
-2  8 18  4  5  1
-2  8 18  5  5  1
-2  8 18  6  5  1
-2  8 18  7  5  1
-2  8 19  0  5  1
-2  8 19  1  5  1
-2  8 19  2  5  1
-2  8 19  3  5  1
-2  8 19  4  5  1
-2  8 19  5  5  1
-2  8 19  6  5  1
-2  8 19  7  5  1
-2  8 20  0  5  1
-2  8 20  1  5  1
-2  8 20  2  5  1
-2  8 20  3  5  1
-2  8 20  4  5  1
-2  8 20  5  5  1
-2  8 20  6  5  1
-2  8 20  7  5  1
-2  8 21  0  5  1
-2  8 21  1  5  1
-2  8 21  2  5  1
-2  8 21  3  5  1
-2  8 21  4  5  1
-2  8 21  5  5  1
-2  8 21  6  5  1
-2  8 21  7  5  1
-2  8 22  0  5  1
-2  8 22  1  5  1
-2  8 22  2  5  1
-2  8 22  3  5  1
-2  8 22  4  5  1
-2  8 22  5  5  1
-2  8 22  6  5  1
-2  8 22  7  5  1
-2  8 23  0  5  1
-2  8 23  1  5  1
-2  8 23  2  5  1
-2  8 23  3  5  1
-2  8 23  4  5  1
-2  8 23  5  5  1
-2  8 23  6  5  1
-2  8 23  7  5  1
-2  8  0  8  5  1
-2  8  0  9  5  1
-2  8  0 10  5  1
-2  8  0 11  5  1
-2  8  0 12  5  1
-2  8  0 13  5  1
-2  8  0 14  5  1
-2  8  0 15  5  1
-2  8  1  8  5  1
-2  8  1  9  5  1
-2  8  1 10  5  1
-2  8  1 11  5  1
-2  8  1 12  5  1
-2  8  1 13  5  1
-2  8  1 14  5  1
-2  8  1 15  5  1
-2  8  2  8  5  1
-2  8  2  9  5  1
-2  8  2 10  5  1
-2  8  2 11  5  1
-2  8  2 12  5  1
-2  8  2 13  5  1
-2  8  2 14  5  1
-2  8  2 15  5  1
-2  8  3  8  5  1
-2  8  3  9  5  1
-2  8  3 10  5  1
-2  8  3 11  5  1
-2  8  3 12  5  1
-2  8  3 13  5  1
-2  8  3 14  5  1
-2  8  3 15  5  1
-2  8  4  8  5  1
-2  8  4  9  5  1
-2  8  4 10  5  1
-2  8  4 11  5  1
-2  8  4 12  5  1
-2  8  4 13  5  1
-2  8  4 14  5  1
-2  8  4 15  5  1
-2  8  5  8  5  1
-2  8  5  9  5  1
-2  8  5 10  5  1
-2  8  5 11  5  1
-2  8  5 12  5  1
-2  8  5 13  5  1
-2  8  5 14  5  1
-2  8  5 15  5  1
-2  8  6  8  5  1
-2  8  6  9  5  1
-2  8  6 10  5  1
-2  8  6 11  5  1
-2  8  6 12  5  1
-2  8  6 13  5  1
-2  8  6 14  5  1
-2  8  6 15  5  1
-2  8  7  8  5  1
-2  8  7  9  5  1
-2  8  7 10  5  1
-2  8  7 11  5  1
-2  8  7 12  5  1
-2  8  7 13  5  1
-2  8  7 14  5  1
-2  8  7 15  5  1
-2  8  8  8  5  1
-2  8  8  9  5  1
-2  8  8 10  5  1
-2  8  8 11  5  1
-2  8  8 12  5  1
-2  8  8 13  5  1
-2  8  8 14  5  1
-2  8  8 15  5  1
-2  8  9  8  5  1
-2  8  9  9  5  1
-2  8  9 10  5  1
-2  8  9 11  5  1
-2  8  9 12  5  1
-2  8  9 13  5  1
-2  8  9 14  5  1
-2  8  9 15  5  1
-2  8 10  8  5  1
-2  8 10  9  5  1
-2  8 10 10  5  1
-2  8 10 11  5  1
-2  8 10 12  5  1
-2  8 10 13  5  1
-2  8 10 14  5  1
-2  8 10 15  5  1
-2  8 11  8  5  1
-2  8 11  9  5  1
-2  8 11 10  5  1
-2  8 11 11  5  1
-2  8 11 12  5  1
-2  8 11 13  5  1
-2  8 11 14  5  1
-2  8 11 15  5  1
-2  8 12  8  5  1
-2  8 12  9  5  1
-2  8 12 10  5  1
-2  8 12 11  5  1
-2  8 12 12  5  1
-2  8 12 13  5  1
-2  8 12 14  5  1
-2  8 12 15  5  1
-2  8 13  8  5  1
-2  8 13  9  5  1
-2  8 13 10  5  1
-2  8 13 11  5  1
-2  8 13 12  5  1
-2  8 13 13  5  1
-2  8 13 14  5  1
-2  8 13 15  5  1
-2  8 14  8  5  1
-2  8 14  9  5  1
-2  8 14 10  5  1
-2  8 14 11  5  1
-2  8 14 12  5  1
-2  8 14 13  5  1
-2  8 14 14  5  1
-2  8 14 15  5  1
-2  8 15  8  5  1
-2  8 15  9  5  1
-2  8 15 10  5  1
-2  8 15 11  5  1
-2  8 15 12  5  1
-2  8 15 13  5  1
-2  8 15 14  5  1
-2  8 15 15  5  1
-2  8 16  8  5  1
-2  8 16  9  5  1
-2  8 16 10  5  1
-2  8 16 11  5  1
-2  8 16 12  5  1
-2  8 16 13  5  1
-2  8 16 14  5  1
-2  8 16 15  5  1
-2  8 17  8  5  1
-2  8 17  9  5  1
-2  8 17 10  5  1
-2  8 17 11  5  1
-2  8 17 12  5  1
-2  8 17 13  5  1
-2  8 17 14  5  1
-2  8 17 15  5  1
-2  8 18  8  5  1
-2  8 18  9  5  1
-2  8 18 10  5  1
-2  8 18 11  5  1
-2  8 18 12  5  1
-2  8 18 13  5  1
-2  8 18 14  5  1
-2  8 18 15  5  1
-2  8 19  8  5  1
-2  8 19  9  5  1
-2  8 19 10  5  1
-2  8 19 11  5  1
-2  8 19 12  5  1
-2  8 19 13  5  1
-2  8 19 14  5  1
-2  8 19 15  5  1
-2  8 20  8  5  1
-2  8 20  9  5  1
-2  8 20 10  5  1
-2  8 20 11  5  1
-2  8 20 12  5  1
-2  8 20 13  5  1
-2  8 20 14  5  1
-2  8 20 15  5  1
-2  8 21  8  5  1
-2  8 21  9  5  1
-2  8 21 10  5  1
-2  8 21 11  5  1
-2  8 21 12  5  1
-2  8 21 13  5  1
-2  8 21 14  5  1
-2  8 21 15  5  1
-2  8 22  8  5  1
-2  8 22  9  5  1
-2  8 22 10  5  1
-2  8 22 11  5  1
-2  8 22 12  5  1
-2  8 22 13  5  1
-2  8 22 14  5  1
-2  8 22 15  5  1
-2  8 23  8  5  1
-2  8 23  9  5  1
-2  8 23 10  5  1
-2  8 23 11  5  1
-2  8 23 12  5  1
-2  8 23 13  5  1
-2  8 23 14  5  1
-2  8 23 15  5  1
-1 17  1  2  2  1
-1 17  0  2  2  1
-1 17  2  3  2  1
-1 17  1  3  2  1
-1 17  0  3  2  1
-1 17  2  4  2  1
-1 17  1  4  2  1
-1 17  0  4  2  1
-1 17  4  5  2  1
-1 17  3  5  2  1
-1 17  2  5  2  1
-1 17  1  5  2  1
-1 17  0  5  2  1
-1 17  4  6  2  1
-1 17  3  6  2  1
-1 17  2  6  2  1
-1 17  1  6  2  1
-1 17  0  6  2  1
-1 17  5  7  2  1
-1 17  4  7  2  1
-1 17  3  7  2  1
-1 17  2  7  2  1
-1 17  1  7  2  1
-1 17  0  7  2  1
-1 17  6  8  2  1
-1 17  5  8  2  1
-1 17  4  8  2  1
-1 17  3  8  2  1
-1 17  2  8  2  1
-1 17  1  8  2  1
-1 17  0  8  2  1
-1 17  7  9  2  1
-1 17  6  9  2  1
-1 17  5  9  2  1
-1 17  4  9  2  1
-1 17  3  9  2  1
-1 17  2  9  2  1
-1 17  1  9  2  1
-1 17  0  9  2  1
-1 17  8 10  2  1
-1 17  7 10  2  1
-1 17  6 10  2  1
-1 17  5 10  2  1
-1 17  4 10  2  1
-1 17  3 10  2  1
-1 17  2 10  2  1
-1 17  1 10  2  1
-1 17  0 10  2  1
-1 17 10 11  2  1
-1 17  9 11  2  1
-1 17  8 11  2  1
-1 17  7 11  2  1
-1 17  6 11  2  1
-1 17  5 11  2  1
-1 17  4 11  2  1
-1 17  3 11  2  1
-1 17  2 11  2  1
-1 17  1 11  2  1
-1 17  0 11  2  1
-1 17 10 12  2  1
-1 17  9 12  2  1
-1 17  8 12  2  1
-1 17  7 12  2  1
-1 17  6 12  2  1
-1 17  5 12  2  1
-1 17  4 12  2  1
-1 17  3 12  2  1
-1 17  2 12  2  1
-1 17  1 12  2  1
-1 17  0 12  2  1
-1 17 12 13  2  1
-1 17 11 13  2  1
-1 17 10 13  2  1
-1 17  9 13  2  1
-1 17  8 13  2  1
-1 17  7 13  2  1
-1 17  6 13  2  1
-1 17  5 13  2  1
-1 17  4 13  2  1
-1 17  3 13  2  1
-1 17  2 13  2  1
-1 17  1 13  2  1
-1 17  0 13  2  1
-1 17 13 14  2  1
-1 17 12 14  2  1
-1 17 11 14  2  1
-1 17 10 14  2  1
-1 17  9 14  2  1
-1 17  8 14  2  1
-1 17  7 14  2  1
-1 17  6 14  2  1
-1 17  5 14  2  1
-1 17  4 14  2  1
-1 17  3 14  2  1
-1 17  2 14  2  1
-1 17  1 14  2  1
-1 17  0 14  2  1
-1 17 14 15  2  1
-1 17 13 15  2  1
-1 17 12 15  2  1
-1 17 11 15  2  1
-1 17 10 15  2  1
-1 17  9 15  2  1
-1 17  8 15  2  1
-1 17  7 15  2  1
-1 17  6 15  2  1
-1 17  5 15  2  1
-1 17  4 15  2  1
-1 17  3 15  2  1
-1 17  2 15  2  1
-1 17  1 15  2  1
-1 17  0 15  2  1
-1 17 15 16  2  1
-1 17 14 16  2  1
-1 17 13 16  2  1
-1 17 12 16  2  1
-1 17 11 16  2  1
-1 17 10 16  2  1
-1 17  9 16  2  1
-1 17  8 16  2  1
-1 17  7 16  2  1
-1 17  6 16  2  1
-1 17  5 16  2  1
-1 17  4 16  2  1
-1 17  3 16  2  1
-1 17  2 16  2  1
-1 17  1 16  2  1
-1 17  0 16  2  1
-1 17 15 17  2  1
-1 17 14 17  2  1
-1 17 13 17  2  1
-1 17 12 17  2  1
-1 17 11 17  2  1
-1 17 10 17  2  1
-1 17  9 17  2  1
-1 17  8 17  2  1
-1 17  7 17  2  1
-1 17  6 17  2  1
-1 17  5 17  2  1
-1 17  4 17  2  1
-1 17  3 17  2  1
-1 17  2 17  2  1
-1 17  1 17  2  1
-1 17  0 17  2  1
-1 17 17 18  2  1
-1 17 16 18  2  1
-1 17 15 18  2  1
-1 17 14 18  2  1
-1 17 13 18  2  1
-1 17 12 18  2  1
-1 17 11 18  2  1
-1 17 10 18  2  1
-1 17  9 18  2  1
-1 17  8 18  2  1
-1 17  7 18  2  1
-1 17  6 18  2  1
-1 17  5 18  2  1
-1 17  4 18  2  1
-1 17  3 18  2  1
-1 17  2 18  2  1
-1 17  1 18  2  1
-1 17  0 18  2  1
-1 17 17 19  2  1
-1 17 16 19  2  1
-1 17 15 19  2  1
-1 17 14 19  2  1
-1 17 13 19  2  1
-1 17 12 19  2  1
-1 17 11 19  2  1
-1 17 10 19  2  1
-1 17  9 19  2  1
-1 17  8 19  2  1
-1 17  7 19  2  1
-1 17  6 19  2  1
-1 17  5 19  2  1
-1 17  4 19  2  1
-1 17  3 19  2  1
-1 17  2 19  2  1
-1 17  1 19  2  1
-1 17  0 19  2  1
-1 17 19 20  2  1
-1 17 18 20  2  1
-1 17 17 20  2  1
-1 17 16 20  2  1
-1 17 15 20  2  1
-1 17 14 20  2  1
-1 17 13 20  2  1
-1 17 12 20  2  1
-1 17 11 20  2  1
-1 17 10 20  2  1
-1 17  9 20  2  1
-1 17  8 20  2  1
-1 17  7 20  2  1
-1 17  6 20  2  1
-1 17  5 20  2  1
-1 17  4 20  2  1
-1 17  3 20  2  1
-1 17  2 20  2  1
-1 17  1 20  2  1
-1 17  0 20  2  1
-1 17 17 21  2  1
-1 17 16 21  2  1
-1 17 15 21  2  1
-1 17 14 21  2  1
-1 17 13 21  2  1
-1 17 12 21  2  1
-1 17 11 21  2  1
-1 17 10 21  2  1
-1 17  9 21  2  1
-1 17  8 21  2  1
-1 17  7 21  2  1
-1 17  6 21  2  1
-1 17  5 21  2  1
-1 17  3 21  2  1
-1 17  2 21  2  1
-1 17  1 21  2  1
-1 17  0 21  2  1
-1 17  7 22  2  1
-1 17  3 22  2  1
-1 17  2 22  2  1
-1 17  1 22  2  1
-1 17  0 22  2  1
-2 17  0  8  0  1
-2 17  0  9  0  1
-2 17  0 10  0  1
-2 17  0 11  0  1
-2 17  0 12  0  1
-2 17  0 13  0  1
-2 17  0 14  0  1
-2 17  0 15  0  1
-2 17  1  8  0  1
-2 17  1  9  0  1
-2 17  1 10  0  1
-2 17  1 11  0  1
-2 17  1 12  0  1
-2 17  1 13  0  1
-2 17  1 14  0  1
-2 17  1 15  0  1
-2 17  2  8  0  1
-2 17  2  9  0  1
-2 17  2 10  0  1
-2 17  2 11  0  1
-2 17  2 12  0  1
-2 17  2 13  0  1
-2 17  2 14  0  1
-2 17  2 15  0  1
-2 17  3  8  0  1
-2 17  3  9  0  1
-2 17  3 10  0  1
-2 17  3 11  0  1
-2 17  3 12  0  1
-2 17  3 13  0  1
-2 17  3 14  0  1
-2 17  3 15  0  1
-2 17  4  8  0  1
-2 17  4  9  0  1
-2 17  4 10  0  1
-2 17  4 11  0  1
-2 17  4 12  0  1
-2 17  4 13  0  1
-2 17  4 14  0  1
-2 17  4 15  0  1
-2 17  5  8  0  1
-2 17  5  9  0  1
-2 17  5 10  0  1
-2 17  5 11  0  1
-2 17  5 12  0  1
-2 17  5 13  0  1
-2 17  5 14  0  1
-2 17  5 15  0  1
-2 17  6  8  0  1
-2 17  6  9  0  1
-2 17  6 10  0  1
-2 17  6 11  0  1
-2 17  6 12  0  1
-2 17  6 13  0  1
-2 17  6 14  0  1
-2 17  6 15  0  1
-2 17  7  8  0  1
-2 17  7  9  0  1
-2 17  7 10  0  1
-2 17  7 11  0  1
-2 17  7 12  0  1
-2 17  7 13  0  1
-2 17  7 14  0  1
-2 17  7 15  0  1
-2 17  8  8  0  1
-2 17  8  9  0  1
-2 17  8 10  0  1
-2 17  8 11  0  1
-2 17  8 12  0  1
-2 17  8 13  0  1
-2 17  8 14  0  1
-2 17  8 15  0  1
-2 17  9  8  0  1
-2 17  9  9  0  1
-2 17  9 10  0  1
-2 17  9 11  0  1
-2 17  9 12  0  1
-2 17  9 13  0  1
-2 17  9 14  0  1
-2 17  9 15  0  1
-2 17 10  8  0  1
-2 17 10  9  0  1
-2 17 10 10  0  1
-2 17 10 11  0  1
-2 17 10 12  0  1
-2 17 10 13  0  1
-2 17 10 14  0  1
-2 17 10 15  0  1
-2 17 11  8  0  1
-2 17 11  9  0  1
-2 17 11 10  0  1
-2 17 11 11  0  1
-2 17 11 12  0  1
-2 17 11 13  0  1
-2 17 11 14  0  1
-2 17 11 15  0  1
-2 17 12  8  0  1
-2 17 12  9  0  1
-2 17 12 10  0  1
-2 17 12 11  0  1
-2 17 12 12  0  1
-2 17 12 13  0  1
-2 17 12 14  0  1
-2 17 12 15  0  1
-2 17 13  8  0  1
-2 17 13  9  0  1
-2 17 13 10  0  1
-2 17 13 11  0  1
-2 17 13 12  0  1
-2 17 13 13  0  1
-2 17 13 14  0  1
-2 17 13 15  0  1
-2 17 14  8  0  1
-2 17 14  9  0  1
-2 17 14 10  0  1
-2 17 14 11  0  1
-2 17 14 12  0  1
-2 17 14 13  0  1
-2 17 14 14  0  1
-2 17 14 15  0  1
-2 17 15  8  0  1
-2 17 15  9  0  1
-2 17 15 10  0  1
-2 17 15 11  0  1
-2 17 15 12  0  1
-2 17 15 13  0  1
-2 17 15 14  0  1
-2 17 15 15  0  1
-2 17 16  8  0  1
-2 17 16  9  0  1
-2 17 16 10  0  1
-2 17 16 11  0  1
-2 17 16 12  0  1
-2 17 16 13  0  1
-2 17 16 14  0  1
-2 17 16 15  0  1
-2 17 17  8  0  1
-2 17 17  9  0  1
-2 17 17 10  0  1
-2 17 17 11  0  1
-2 17 17 12  0  1
-2 17 17 13  0  1
-2 17 17 14  0  1
-2 17 17 15  0  1
-2 17 18  8  0  1
-2 17 18  9  0  1
-2 17 18 10  0  1
-2 17 18 11  0  1
-2 17 18 12  0  1
-2 17 18 13  0  1
-2 17 18 14  0  1
-2 17 18 15  0  1
-2 17 19  8  0  1
-2 17 19  9  0  1
-2 17 19 10  0  1
-2 17 19 11  0  1
-2 17 19 12  0  1
-2 17 19 13  0  1
-2 17 19 14  0  1
-2 17 19 15  0  1
-2 17 20  8  0  1
-2 17 20  9  0  1
-2 17 20 10  0  1
-2 17 20 11  0  1
-2 17 20 12  0  1
-2 17 20 13  0  1
-2 17 20 14  0  1
-2 17 20 15  0  1
-2 17 21  8  0  1
-2 17 21  9  0  1
-2 17 21 10  0  1
-2 17 21 11  0  1
-2 17 21 12  0  1
-2 17 21 13  0  1
-2 17 21 14  0  1
-2 17 21 15  0  1
-2 17 22  8  0  1
-2 17 22  9  0  1
-2 17 22 10  0  1
-2 17 22 11  0  1
-2 17 22 12  0  1
-2 17 22 13  0  1
-2 17 22 14  0  1
-2 17 22 15  0  1
-2 17 23  8  0  1
-2 17 23  9  0  1
-2 17 23 10  0  1
-2 17 23 11  0  1
-2 17 23 12  0  1
-2 17 23 13  0  1
-2 17 23 14  0  1
-2 17 23 15  0  1
-2 24  0  0  1  1
-2 24  0  1  1  1
-2 24  0  2  1  1
-2 24  0  3  1  1
-2 24  0  4  1  1
-2 24  0  5  1  1
-2 24  0  6  1  1
-2 24  0  7  1  1
-2 24  1  0  1  1
-2 24  1  1  1  1
-2 24  1  2  1  1
-2 24  1  3  1  1
-2 24  1  4  1  1
-2 24  1  5  1  1
-2 24  1  6  1  1
-2 24  1  7  1  1
-2 24  2  0  1  1
-2 24  2  1  1  1
-2 24  2  2  1  1
-2 24  2  3  1  1
-2 24  2  4  1  1
-2 24  2  5  1  1
-2 24  2  6  1  1
-2 24  2  7  1  1
-2 24  3  0  1  1
-2 24  3  1  1  1
-2 24  3  2  1  1
-2 24  3  3  1  1
-2 24  3  4  1  1
-2 24  3  5  1  1
-2 24  3  6  1  1
-2 24  3  7  1  1
-2 24  4  0  1  1
-2 24  4  1  1  1
-2 24  4  2  1  1
-2 24  4  3  1  1
-2 24  4  4  1  1
-2 24  4  5  1  1
-2 24  4  6  1  1
-2 24  4  7  1  1
-2 24  5  0  1  1
-2 24  5  1  1  1
-2 24  5  2  1  1
-2 24  5  3  1  1
-2 24  5  4  1  1
-2 24  5  5  1  1
-2 24  5  6  1  1
-2 24  5  7  1  1
-2 24  6  0  1  1
-2 24  6  1  1  1
-2 24  6  2  1  1
-2 24  6  3  1  1
-2 24  6  4  1  1
-2 24  6  5  1  1
-2 24  6  6  1  1
-2 24  6  7  1  1
-2 24  7  0  1  1
-2 24  7  1  1  1
-2 24  7  2  1  1
-2 24  7  3  1  1
-2 24  7  4  1  1
-2 24  7  5  1  1
-2 24  7  6  1  1
-2 24  7  7  1  1
-2 24  8  0  1  1
-2 24  8  1  1  1
-2 24  8  2  1  1
-2 24  8  3  1  1
-2 24  8  4  1  1
-2 24  8  5  1  1
-2 24  8  6  1  1
-2 24  8  7  1  1
-2 24  9  0  1  1
-2 24  9  1  1  1
-2 24  9  2  1  1
-2 24  9  3  1  1
-2 24  9  4  1  1
-2 24  9  5  1  1
-2 24  9  6  1  1
-2 24  9  7  1  1
-2 24 10  0  1  1
-2 24 10  1  1  1
-2 24 10  2  1  1
-2 24 10  3  1  1
-2 24 10  4  1  1
-2 24 10  5  1  1
-2 24 10  6  1  1
-2 24 10  7  1  1
-2 24 11  0  1  1
-2 24 11  1  1  1
-2 24 11  2  1  1
-2 24 11  3  1  1
-2 24 11  4  1  1
-2 24 11  5  1  1
-2 24 11  6  1  1
-2 24 11  7  1  1
-2 24 12  0  1  1
-2 24 12  1  1  1
-2 24 12  2  1  1
-2 24 12  3  1  1
-2 24 12  4  1  1
-2 24 12  5  1  1
-2 24 12  6  1  1
-2 24 12  7  1  1
-2 24 13  0  1  1
-2 24 13  1  1  1
-2 24 13  2  1  1
-2 24 13  3  1  1
-2 24 13  4  1  1
-2 24 13  5  1  1
-2 24 13  6  1  1
-2 24 13  7  1  1
-2 24 14  0  1  1
-2 24 14  1  1  1
-2 24 14  2  1  1
-2 24 14  3  1  1
-2 24 14  4  1  1
-2 24 14  5  1  1
-2 24 14  6  1  1
-2 24 14  7  1  1
-2 24 15  0  1  1
-2 24 15  1  1  1
-2 24 15  2  1  1
-2 24 15  3  1  1
-2 24 15  4  1  1
-2 24 15  5  1  1
-2 24 15  6  1  1
-2 24 15  7  1  1
-2 24 16  0  1  1
-2 24 16  1  1  1
-2 24 16  2  1  1
-2 24 16  3  1  1
-2 24 16  4  1  1
-2 24 16  5  1  1
-2 24 16  6  1  1
-2 24 16  7  1  1
-2 24 17  0  1  1
-2 24 17  1  1  1
-2 24 17  2  1  1
-2 24 17  3  1  1
-2 24 17  4  1  1
-2 24 17  5  1  1
-2 24 17  6  1  1
-2 24 17  7  1  1
-2 24 18  0  1  1
-2 24 18  1  1  1
-2 24 18  2  1  1
-2 24 18  3  1  1
-2 24 18  4  1  1
-2 24 18  5  1  1
-2 24 18  6  1  1
-2 24 18  7  1  1
-2 24 19  0  1  1
-2 24 19  1  1  1
-2 24 19  2  1  1
-2 24 19  3  1  1
-2 24 19  4  1  1
-2 24 19  5  1  1
-2 24 19  6  1  1
-2 24 19  7  1  1
-2 24 20  0  1  1
-2 24 20  1  1  1
-2 24 20  2  1  1
-2 24 20  3  1  1
-2 24 20  4  1  1
-2 24 20  5  1  1
-2 24 20  6  1  1
-2 24 20  7  1  1
-2 24 21  0  1  1
-2 24 21  1  1  1
-2 24 21  2  1  1
-2 24 21  3  1  1
-2 24 21  4  1  1
-2 24 21  5  1  1
-2 24 21  6  1  1
-2 24 21  7  1  1
-2 24 22  0  1  1
-2 24 22  1  1  1
-2 24 22  2  1  1
-2 24 22  3  1  1
-2 24 22  4  1  1
-2 24 22  5  1  1
-2 24 22  6  1  1
-2 24 22  7  1  1
-2 24 23  0  1  1
-2 24 23  1  1  1
-2 24 23  2  1  1
-2 24 23  3  1  1
-2 24 23  4  1  1
-2 24 23  5  1  1
-2 24 23  6  1  1
-2 24 23  7  1  1
-2 24  0  8  1  1
-2 24  0  9  1  1
-2 24  0 10  1  1
-2 24  0 11  1  1
-2 24  0 12  1  1
-2 24  0 13  1  1
-2 24  0 14  1  1
-2 24  0 15  1  1
-2 24  1  8  1  1
-2 24  1  9  1  1
-2 24  1 10  1  1
-2 24  1 11  1  1
-2 24  1 12  1  1
-2 24  1 13  1  1
-2 24  1 14  1  1
-2 24  1 15  1  1
-2 24  2  8  1  1
-2 24  2  9  1  1
-2 24  2 10  1  1
-2 24  2 11  1  1
-2 24  2 12  1  1
-2 24  2 13  1  1
-2 24  2 14  1  1
-2 24  2 15  1  1
-2 24  3  8  1  1
-2 24  3  9  1  1
-2 24  3 10  1  1
-2 24  3 11  1  1
-2 24  3 12  1  1
-2 24  3 13  1  1
-2 24  3 14  1  1
-2 24  3 15  1  1
-2 24  4  8  1  1
-2 24  4  9  1  1
-2 24  4 10  1  1
-2 24  4 11  1  1
-2 24  4 12  1  1
-2 24  4 13  1  1
-2 24  4 14  1  1
-2 24  4 15  1  1
-2 24  5  8  1  1
-2 24  5  9  1  1
-2 24  5 10  1  1
-2 24  5 11  1  1
-2 24  5 12  1  1
-2 24  5 13  1  1
-2 24  5 14  1  1
-2 24  5 15  1  1
-2 24  6  8  1  1
-2 24  6  9  1  1
-2 24  6 10  1  1
-2 24  6 11  1  1
-2 24  6 12  1  1
-2 24  6 13  1  1
-2 24  6 14  1  1
-2 24  6 15  1  1
-2 24  7  8  1  1
-2 24  7  9  1  1
-2 24  7 10  1  1
-2 24  7 11  1  1
-2 24  7 12  1  1
-2 24  7 13  1  1
-2 24  7 14  1  1
-2 24  7 15  1  1
-2 24  8  8  1  1
-2 24  8  9  1  1
-2 24  8 10  1  1
-2 24  8 11  1  1
-2 24  8 12  1  1
-2 24  8 13  1  1
-2 24  8 14  1  1
-2 24  8 15  1  1
-2 24  9  8  1  1
-2 24  9  9  1  1
-2 24  9 10  1  1
-2 24  9 11  1  1
-2 24  9 12  1  1
-2 24  9 13  1  1
-2 24  9 14  1  1
-2 24  9 15  1  1
-2 24 10  8  1  1
-2 24 10  9  1  1
-2 24 10 10  1  1
-2 24 10 11  1  1
-2 24 10 12  1  1
-2 24 10 13  1  1
-2 24 10 14  1  1
-2 24 10 15  1  1
-2 24 11  8  1  1
-2 24 11  9  1  1
-2 24 11 10  1  1
-2 24 11 11  1  1
-2 24 11 12  1  1
-2 24 11 13  1  1
-2 24 11 14  1  1
-2 24 11 15  1  1
-2 24 12  8  1  1
-2 24 12  9  1  1
-2 24 12 10  1  1
-2 24 12 11  1  1
-2 24 12 12  1  1
-2 24 12 13  1  1
-2 24 12 14  1  1
-2 24 12 15  1  1
-2 24 13  8  1  1
-2 24 13  9  1  1
-2 24 13 10  1  1
-2 24 13 11  1  1
-2 24 13 12  1  1
-2 24 13 13  1  1
-2 24 13 14  1  1
-2 24 13 15  1  1
-2 24 14  8  1  1
-2 24 14  9  1  1
-2 24 14 10  1  1
-2 24 14 11  1  1
-2 24 14 12  1  1
-2 24 14 13  1  1
-2 24 14 14  1  1
-2 24 14 15  1  1
-2 24 15  8  1  1
-2 24 15  9  1  1
-2 24 15 10  1  1
-2 24 15 11  1  1
-2 24 15 12  1  1
-2 24 15 13  1  1
-2 24 15 14  1  1
-2 24 15 15  1  1
-2 24 16  8  1  1
-2 24 16  9  1  1
-2 24 16 10  1  1
-2 24 16 11  1  1
-2 24 16 12  1  1
-2 24 16 13  1  1
-2 24 16 14  1  1
-2 24 16 15  1  1
-2 24 17  8  1  1
-2 24 17  9  1  1
-2 24 17 10  1  1
-2 24 17 11  1  1
-2 24 17 12  1  1
-2 24 17 13  1  1
-2 24 17 14  1  1
-2 24 17 15  1  1
-2 24 18  8  1  1
-2 24 18  9  1  1
-2 24 18 10  1  1
-2 24 18 11  1  1
-2 24 18 12  1  1
-2 24 18 13  1  1
-2 24 18 14  1  1
-2 24 18 15  1  1
-2 24 19  8  1  1
-2 24 19  9  1  1
-2 24 19 10  1  1
-2 24 19 11  1  1
-2 24 19 12  1  1
-2 24 19 13  1  1
-2 24 19 14  1  1
-2 24 19 15  1  1
-2 24 20  8  1  1
-2 24 20  9  1  1
-2 24 20 10  1  1
-2 24 20 11  1  1
-2 24 20 12  1  1
-2 24 20 13  1  1
-2 24 20 14  1  1
-2 24 20 15  1  1
-2 24 21  8  1  1
-2 24 21  9  1  1
-2 24 21 10  1  1
-2 24 21 11  1  1
-2 24 21 12  1  1
-2 24 21 13  1  1
-2 24 21 14  1  1
-2 24 21 15  1  1
-2 24 22  8  1  1
-2 24 22  9  1  1
-2 24 22 10  1  1
-2 24 22 11  1  1
-2 24 22 12  1  1
-2 24 22 13  1  1
-2 24 22 14  1  1
-2 24 22 15  1  1
-2 24 23  8  1  1
-2 24 23  9  1  1
-2 24 23 10  1  1
-2 24 23 11  1  1
-2 24 23 12  1  1
-2 24 23 13  1  1
-2 24 23 14  1  1
-2 24 23 15  1  1
